<?xml version="1.0" encoding="UTF-8" standalone="no"?>
<svg
   xmlns:dc="http://purl.org/dc/elements/1.1/"
   xmlns:cc="http://creativecommons.org/ns#"
   xmlns:rdf="http://www.w3.org/1999/02/22-rdf-syntax-ns#"
   xmlns:svg="http://www.w3.org/2000/svg"
   xmlns="http://www.w3.org/2000/svg"
   version="1.1"
   id="svg11024"
   height="27.649601"
   width="27.649601">
  <defs
     id="defs11026">
    <linearGradient
       id="linearGradient4911">
      <stop
         style="stop-color:#4d4d4d;stop-opacity:1;"
         offset="0"
         id="stop4913" />
      <stop
         style="stop-color:#4d4d4d;stop-opacity:0.5043478;"
         offset="1"
         id="stop4915" />
    </linearGradient>
    <linearGradient
       id="linearGradient11063">
      <stop
         style="stop-color:#4d4d4d;stop-opacity:1;"
         offset="0"
         id="stop11065" />
      <stop
         style="stop-color:#4d4d4d;stop-opacity:0.5043478;"
         offset="1"
         id="stop11067" />
    </linearGradient>
    <linearGradient
       id="linearGradient11070">
      <stop
         style="stop-color:#4d4d4d;stop-opacity:1;"
         offset="0"
         id="stop11072" />
      <stop
         style="stop-color:#4d4d4d;stop-opacity:0.5043478;"
         offset="1"
         id="stop11074" />
    </linearGradient>
    <linearGradient
       id="linearGradient11077">
      <stop
         style="stop-color:#4d4d4d;stop-opacity:1;"
         offset="0"
         id="stop11079" />
      <stop
         style="stop-color:#4d4d4d;stop-opacity:0.5043478;"
         offset="1"
         id="stop11081" />
    </linearGradient>
    <filter
       style="color-interpolation-filters:sRGB"
       id="filter7466"
       x="-0.1284"
       width="1.2568001"
       y="-0.1284"
       height="1.2568001">
      <feGaussianBlur
         stdDeviation="1.177"
         id="feGaussianBlur7468" />
    </filter>
  </defs>
  <metadata
     id="metadata11029">
    <rdf:RDF>
      <cc:Work
         rdf:about="">
        <dc:format>image/svg+xml</dc:format>
        <dc:type
           rdf:resource="http://purl.org/dc/dcmitype/StillImage" />
        <dc:title></dc:title>
      </cc:Work>
    </rdf:RDF>
  </metadata>
  <g
     id="layer1"
     transform="translate(-323.4752,-792.33738)"
     style="display:inline">
    <g
       transform="translate(1.1751993,-1.1752007)"
       id="g1956">
      <path
         id="path7460-6"
         d="m 336.1248,796.33738 c -6.07513,0 -11,4.92487 -11,11 0,6.07513 4.92487,11 11,11 6.07513,0 11,-4.92487 11,-11 0,-6.07513 -4.92487,-11 -11,-11 z"
         style="color:#000000;font-style:normal;font-variant:normal;font-weight:normal;font-stretch:normal;font-size:medium;line-height:normal;font-family:Sans;-inkscape-font-specification:Sans;text-indent:0;text-align:start;text-decoration:none;text-decoration-line:none;letter-spacing:normal;word-spacing:normal;text-transform:none;writing-mode:lr-tb;direction:ltr;baseline-shift:baseline;text-anchor:start;display:inline;overflow:visible;visibility:visible;opacity:0.2;fill:#000000;fill-opacity:1;fill-rule:nonzero;stroke:none;stroke-width:2;marker:none;filter:url(#filter7466);enable-background:accumulate" />
      <circle
         id="path5519"
         style="fill:#ffffff;fill-opacity:1;stroke:none"
         transform="matrix(1.047619,0,0,1.047619,-77.16091,295.23085)"
         cx="394.5"
         cy="487.86218"
         r="10.5" />
      <path
         id="path3314-5"
         d="m 326.8748,802.49363 c -0.48949,1.17963 -0.75,2.48704 -0.75,3.84375 0,5.52285 4.47715,10 10,10 3.75622,0 7.00949,-2.06257 8.71875,-5.125 l -1.28125,-1.90625 c -1.17603,2.95269 -4.06147,5.03125 -7.4375,5.03125 -3.51617,0 -6.51861,-2.25794 -7.59375,-5.40625 l 1.59375,-1.59375 z"
         style="fill:#3daee9;fill-opacity:1;stroke:none" />
      <path
         id="path3314-2-3"
         d="m 345.3748,810.18113 c 0.48949,-1.17963 0.75,-2.48704 0.75,-3.84375 0,-5.52285 -4.47715,-10 -10,-10 -3.75622,0 -7.00949,2.06257 -8.71875,5.125 l 1.28125,1.90625 c 1.17603,-2.95269 4.06147,-5.03125 7.4375,-5.03125 3.51617,0 6.51861,2.25794 7.59375,5.40625 l -1.59375,1.59375 z"
         style="fill:#f67400;fill-opacity:1;stroke:none" />
    </g>
  </g>
  <g
     id="layer4"
     style="display:none;opacity:0.4"
     transform="translate(-323.4752,-89.9752)">
    <path
       style="fill:#d60000;fill-opacity:1;stroke:none"
       d="m 24,39 v 4 h -4 v 1 h 5 v -1 -4 z m 16,0 v 4 h -1 v 1 h 1 V 59 H 25 v -1 h -1 v 1 h -4 v 1 h 4 v 1 h 1 v -1 h 15 v 15 h -1 v 1 h 1 v 4 h 1 v -4 h 1 V 75 H 41 V 60 h 15 v 1 h 1 v -1 h 4 v -1 h -4 v -1 h -1 v 1 H 41 V 44 h 1 v -1 h -1 v -4 z m 16,0 v 4 1 h 5 V 43 H 57 V 39 Z M 20,75 v 1 h 4 v 4 h 1 v -4 -1 h -1 z m 36,0 v 1 4 h 1 v -4 h 4 v -1 h -4 z"
       id="rect12793" />
    <path
       style="fill:#d60000;fill-opacity:1;stroke:none"
       d="m 74,39 v 4 h -4 v 1 h 5 v -1 -4 z m 16,0 v 4 h -1 v 1 h 1 V 59 H 75 v -1 h -1 v 1 h -4 v 1 h 4 v 1 h 1 v -1 h 15 v 15 h -1 v 1 h 1 v 4 h 1 v -4 h 1 V 75 H 91 V 60 h 15 v 1 h 1 v -1 h 4 v -1 h -4 v -1 h -1 v 1 H 91 V 44 h 1 v -1 h -1 v -4 z m 16,0 v 4 1 h 5 v -1 h -4 V 39 Z M 70,75 v 1 h 4 v 4 h 1 v -4 -1 h -1 z m 36,0 v 1 4 h 1 v -4 h 4 v -1 h -4 z"
       id="rect12793-4" />
    <path
       style="fill:#d60000;fill-opacity:1;stroke:none"
       d="m 124,39 v 4 h -4 v 1 h 5 v -1 -4 z m 16,0 v 4 h -1 v 1 h 1 v 15 h -15 v -1 h -1 v 1 h -4 v 1 h 4 v 1 h 1 v -1 h 15 v 15 h -1 v 1 h 1 v 4 h 1 v -4 h 1 v -1 h -1 V 60 h 15 v 1 h 1 v -1 h 4 v -1 h -4 v -1 h -1 v 1 H 141 V 44 h 1 v -1 h -1 v -4 z m 16,0 v 4 1 h 5 v -1 h -4 v -4 z m -36,36 v 1 h 4 v 4 h 1 v -4 -1 h -1 z m 36,0 v 1 4 h 1 v -4 h 4 v -1 h -4 z"
       id="rect12793-4-4" />
    <path
       style="fill:#d60000;fill-opacity:1;stroke:none"
       d="m 174,39 v 4 h -4 v 1 h 5 v -1 -4 z m 16,0 v 4 h -1 v 1 h 1 v 15 h -15 v -1 h -1 v 1 h -4 v 1 h 4 v 1 h 1 v -1 h 15 v 15 h -1 v 1 h 1 v 4 h 1 v -4 h 1 v -1 h -1 V 60 h 15 v 1 h 1 v -1 h 4 v -1 h -4 v -1 h -1 v 1 H 191 V 44 h 1 v -1 h -1 v -4 z m 16,0 v 4 1 h 5 v -1 h -4 v -4 z m -36,36 v 1 h 4 v 4 h 1 v -4 -1 h -1 z m 36,0 v 1 4 h 1 v -4 h 4 v -1 h -4 z"
       id="rect12793-4-4-2" />
    <path
       style="fill:#d60000;fill-opacity:1;stroke:none"
       d="m 224,39 v 4 h -4 v 1 h 5 v -1 -4 z m 16,0 v 4 h -1 v 1 h 1 v 15 h -15 v -1 h -1 v 1 h -4 v 1 h 4 v 1 h 1 v -1 h 15 v 15 h -1 v 1 h 1 v 4 h 1 v -4 h 1 v -1 h -1 V 60 h 15 v 1 h 1 v -1 h 4 v -1 h -4 v -1 h -1 v 1 H 241 V 44 h 1 v -1 h -1 v -4 z m 16,0 v 4 1 h 5 v -1 h -4 v -4 z m -36,36 v 1 h 4 v 4 h 1 v -4 -1 h -1 z m 36,0 v 1 4 h 1 v -4 h 4 v -1 h -4 z"
       id="rect12793-4-4-2-5" />
    <path
       style="fill:#d60000;fill-opacity:1;stroke:none"
       d="m 274,39 v 4 h -4 v 1 h 5 v -1 -4 z m 16,0 v 4 h -1 v 1 h 1 v 15 h -15 v -1 h -1 v 1 h -4 v 1 h 4 v 1 h 1 v -1 h 15 v 15 h -1 v 1 h 1 v 4 h 1 v -4 h 1 v -1 h -1 V 60 h 15 v 1 h 1 v -1 h 4 v -1 h -4 v -1 h -1 v 1 H 291 V 44 h 1 v -1 h -1 v -4 z m 16,0 v 4 1 h 5 v -1 h -4 v -4 z m -36,36 v 1 h 4 v 4 h 1 v -4 -1 h -1 z m 36,0 v 1 4 h 1 v -4 h 4 v -1 h -4 z"
       id="rect12793-4-4-2-5-6" />
    <path
       style="fill:#d60000;fill-opacity:1;stroke:none"
       d="m 324,39 v 4 h -4 v 1 h 5 v -1 -4 z m 16,0 v 4 h -1 v 1 h 1 v 15 h -15 v -1 h -1 v 1 h -4 v 1 h 4 v 1 h 1 v -1 h 15 v 15 h -1 v 1 h 1 v 4 h 1 v -4 h 1 v -1 h -1 V 60 h 15 v 1 h 1 v -1 h 4 v -1 h -4 v -1 h -1 v 1 H 341 V 44 h 1 v -1 h -1 v -4 z m 16,0 v 4 1 h 5 v -1 h -4 v -4 z m -36,36 v 1 h 4 v 4 h 1 v -4 -1 h -1 z m 36,0 v 1 4 h 1 v -4 h 4 v -1 h -4 z"
       id="rect12793-4-4-2-5-6-2" />
    <path
       style="fill:#d60000;fill-opacity:1;stroke:none"
       d="m 374,39 v 4 h -4 v 1 h 5 v -1 -4 z m 16,0 v 4 h -1 v 1 h 1 v 15 h -15 v -1 h -1 v 1 h -4 v 1 h 4 v 1 h 1 v -1 h 15 v 15 h -1 v 1 h 1 v 4 h 1 v -4 h 1 v -1 h -1 V 60 h 15 v 1 h 1 v -1 h 4 v -1 h -4 v -1 h -1 v 1 H 391 V 44 h 1 v -1 h -1 v -4 z m 16,0 v 4 1 h 5 v -1 h -4 v -4 z m -36,36 v 1 h 4 v 4 h 1 v -4 -1 h -1 z m 36,0 v 1 4 h 1 v -4 h 4 v -1 h -4 z"
       id="rect12793-4-4-2-5-6-2-8" />
    <path
       style="fill:#d60000;fill-opacity:1;stroke:none"
       d="m 24,89 v 4 h -4 v 1 h 5 v -1 -4 z m 16,0 v 4 h -1 v 1 h 1 v 15 H 25 v -1 h -1 v 1 h -4 v 1 h 4 v 1 h 1 v -1 h 15 v 15 h -1 v 1 h 1 v 4 h 1 v -4 h 1 v -1 h -1 v -15 h 15 v 1 h 1 v -1 h 4 v -1 h -4 v -1 h -1 v 1 H 41 V 94 h 1 v -1 h -1 v -4 z m 16,0 v 4 1 h 5 v -1 h -4 v -4 z m -36,36 v 1 h 4 v 4 h 1 v -4 -1 h -1 z m 36,0 v 1 4 h 1 v -4 h 4 v -1 h -4 z"
       id="rect12793-49" />
    <path
       style="fill:#d60000;fill-opacity:1;stroke:none"
       d="m 74,89 v 4 h -4 v 1 h 5 v -1 -4 z m 16,0 v 4 h -1 v 1 h 1 v 15 H 75 v -1 h -1 v 1 h -4 v 1 h 4 v 1 h 1 v -1 h 15 v 15 h -1 v 1 h 1 v 4 h 1 v -4 h 1 v -1 h -1 v -15 h 15 v 1 h 1 v -1 h 4 v -1 h -4 v -1 h -1 v 1 H 91 V 94 h 1 v -1 h -1 v -4 z m 16,0 v 4 1 h 5 v -1 h -4 v -4 z m -36,36 v 1 h 4 v 4 h 1 v -4 -1 h -1 z m 36,0 v 1 4 h 1 v -4 h 4 v -1 h -4 z"
       id="rect12793-4-1" />
    <path
       style="fill:#d60000;fill-opacity:1;stroke:none"
       d="m 124,89 v 4 h -4 v 1 h 5 v -1 -4 z m 16,0 v 4 h -1 v 1 h 1 v 15 h -15 v -1 h -1 v 1 h -4 v 1 h 4 v 1 h 1 v -1 h 15 v 15 h -1 v 1 h 1 v 4 h 1 v -4 h 1 v -1 h -1 v -15 h 15 v 1 h 1 v -1 h 4 v -1 h -4 v -1 h -1 v 1 H 141 V 94 h 1 v -1 h -1 v -4 z m 16,0 v 4 1 h 5 v -1 h -4 v -4 z m -36,36 v 1 h 4 v 4 h 1 v -4 -1 h -1 z m 36,0 v 1 4 h 1 v -4 h 4 v -1 h -4 z"
       id="rect12793-4-4-3" />
    <path
       style="fill:#d60000;fill-opacity:1;stroke:none"
       d="m 174,89 v 4 h -4 v 1 h 5 v -1 -4 z m 16,0 v 4 h -1 v 1 h 1 v 15 h -15 v -1 h -1 v 1 h -4 v 1 h 4 v 1 h 1 v -1 h 15 v 15 h -1 v 1 h 1 v 4 h 1 v -4 h 1 v -1 h -1 v -15 h 15 v 1 h 1 v -1 h 4 v -1 h -4 v -1 h -1 v 1 H 191 V 94 h 1 v -1 h -1 v -4 z m 16,0 v 4 1 h 5 v -1 h -4 v -4 z m -36,36 v 1 h 4 v 4 h 1 v -4 -1 h -1 z m 36,0 v 1 4 h 1 v -4 h 4 v -1 h -4 z"
       id="rect12793-4-4-2-2" />
    <path
       style="fill:#d60000;fill-opacity:1;stroke:none"
       d="m 224,89 v 4 h -4 v 1 h 5 v -1 -4 z m 16,0 v 4 h -1 v 1 h 1 v 15 h -15 v -1 h -1 v 1 h -4 v 1 h 4 v 1 h 1 v -1 h 15 v 15 h -1 v 1 h 1 v 4 h 1 v -4 h 1 v -1 h -1 v -15 h 15 v 1 h 1 v -1 h 4 v -1 h -4 v -1 h -1 v 1 H 241 V 94 h 1 v -1 h -1 v -4 z m 16,0 v 4 1 h 5 v -1 h -4 v -4 z m -36,36 v 1 h 4 v 4 h 1 v -4 -1 h -1 z m 36,0 v 1 4 h 1 v -4 h 4 v -1 h -4 z"
       id="rect12793-4-4-2-5-8" />
    <path
       style="fill:#d60000;fill-opacity:1;stroke:none"
       d="m 274,89 v 4 h -4 v 1 h 5 v -1 -4 z m 16,0 v 4 h -1 v 1 h 1 v 15 h -15 v -1 h -1 v 1 h -4 v 1 h 4 v 1 h 1 v -1 h 15 v 15 h -1 v 1 h 1 v 4 h 1 v -4 h 1 v -1 h -1 v -15 h 15 v 1 h 1 v -1 h 4 v -1 h -4 v -1 h -1 v 1 H 291 V 94 h 1 v -1 h -1 v -4 z m 16,0 v 4 1 h 5 v -1 h -4 v -4 z m -36,36 v 1 h 4 v 4 h 1 v -4 -1 h -1 z m 36,0 v 1 4 h 1 v -4 h 4 v -1 h -4 z"
       id="rect12793-4-4-2-5-6-3" />
    <path
       style="fill:#d60000;fill-opacity:1;stroke:none"
       d="m 324,89 v 4 h -4 v 1 h 5 v -1 -4 z m 16,0 v 4 h -1 v 1 h 1 v 15 h -15 v -1 h -1 v 1 h -4 v 1 h 4 v 1 h 1 v -1 h 15 v 15 h -1 v 1 h 1 v 4 h 1 v -4 h 1 v -1 h -1 v -15 h 15 v 1 h 1 v -1 h 4 v -1 h -4 v -1 h -1 v 1 H 341 V 94 h 1 v -1 h -1 v -4 z m 16,0 v 4 1 h 5 v -1 h -4 v -4 z m -36,36 v 1 h 4 v 4 h 1 v -4 -1 h -1 z m 36,0 v 1 4 h 1 v -4 h 4 v -1 h -4 z"
       id="rect12793-4-4-2-5-6-2-83" />
    <path
       style="fill:#d60000;fill-opacity:1;stroke:none"
       d="m 374,89 v 4 h -4 v 1 h 5 v -1 -4 z m 16,0 v 4 h -1 v 1 h 1 v 15 h -15 v -1 h -1 v 1 h -4 v 1 h 4 v 1 h 1 v -1 h 15 v 15 h -1 v 1 h 1 v 4 h 1 v -4 h 1 v -1 h -1 v -15 h 15 v 1 h 1 v -1 h 4 v -1 h -4 v -1 h -1 v 1 H 391 V 94 h 1 v -1 h -1 v -4 z m 16,0 v 4 1 h 5 v -1 h -4 v -4 z m -36,36 v 1 h 4 v 4 h 1 v -4 -1 h -1 z m 36,0 v 1 4 h 1 v -4 h 4 v -1 h -4 z"
       id="rect12793-4-4-2-5-6-2-8-8" />
    <path
       style="fill:#d60000;fill-opacity:1;stroke:none"
       d="m 24,139 v 4 h -4 v 1 h 5 v -1 -4 z m 16,0 v 4 h -1 v 1 h 1 v 15 H 25 v -1 h -1 v 1 h -4 v 1 h 4 v 1 h 1 v -1 h 15 v 15 h -1 v 1 h 1 v 4 h 1 v -4 h 1 v -1 h -1 v -15 h 15 v 1 h 1 v -1 h 4 v -1 h -4 v -1 h -1 v 1 H 41 v -15 h 1 v -1 h -1 v -4 z m 16,0 v 4 1 h 5 v -1 h -4 v -4 z m -36,36 v 1 h 4 v 4 h 1 v -4 -1 h -1 z m 36,0 v 1 4 h 1 v -4 h 4 v -1 h -4 z"
       id="rect12793-49-1" />
    <path
       style="fill:#d60000;fill-opacity:1;stroke:none"
       d="m 74,139 v 4 h -4 v 1 h 5 v -1 -4 z m 16,0 v 4 h -1 v 1 h 1 v 15 H 75 v -1 h -1 v 1 h -4 v 1 h 4 v 1 h 1 v -1 h 15 v 15 h -1 v 1 h 1 v 4 h 1 v -4 h 1 v -1 h -1 v -15 h 15 v 1 h 1 v -1 h 4 v -1 h -4 v -1 h -1 v 1 H 91 v -15 h 1 v -1 h -1 v -4 z m 16,0 v 4 1 h 5 v -1 h -4 v -4 z m -36,36 v 1 h 4 v 4 h 1 v -4 -1 h -1 z m 36,0 v 1 4 h 1 v -4 h 4 v -1 h -4 z"
       id="rect12793-4-1-9" />
    <path
       style="fill:#d60000;fill-opacity:1;stroke:none"
       d="m 124,139 v 4 h -4 v 1 h 5 v -1 -4 z m 16,0 v 4 h -1 v 1 h 1 v 15 h -15 v -1 h -1 v 1 h -4 v 1 h 4 v 1 h 1 v -1 h 15 v 15 h -1 v 1 h 1 v 4 h 1 v -4 h 1 v -1 h -1 v -15 h 15 v 1 h 1 v -1 h 4 v -1 h -4 v -1 h -1 v 1 h -15 v -15 h 1 v -1 h -1 v -4 z m 16,0 v 4 1 h 5 v -1 h -4 v -4 z m -36,36 v 1 h 4 v 4 h 1 v -4 -1 h -1 z m 36,0 v 1 4 h 1 v -4 h 4 v -1 h -4 z"
       id="rect12793-4-4-3-5" />
    <path
       style="fill:#d60000;fill-opacity:1;stroke:none"
       d="m 174,139 v 4 h -4 v 1 h 5 v -1 -4 z m 16,0 v 4 h -1 v 1 h 1 v 15 h -15 v -1 h -1 v 1 h -4 v 1 h 4 v 1 h 1 v -1 h 15 v 15 h -1 v 1 h 1 v 4 h 1 v -4 h 1 v -1 h -1 v -15 h 15 v 1 h 1 v -1 h 4 v -1 h -4 v -1 h -1 v 1 h -15 v -15 h 1 v -1 h -1 v -4 z m 16,0 v 4 1 h 5 v -1 h -4 v -4 z m -36,36 v 1 h 4 v 4 h 1 v -4 -1 h -1 z m 36,0 v 1 4 h 1 v -4 h 4 v -1 h -4 z"
       id="rect12793-4-4-2-2-1" />
    <path
       style="fill:#d60000;fill-opacity:1;stroke:none"
       d="m 224,139 v 4 h -4 v 1 h 5 v -1 -4 z m 16,0 v 4 h -1 v 1 h 1 v 15 h -15 v -1 h -1 v 1 h -4 v 1 h 4 v 1 h 1 v -1 h 15 v 15 h -1 v 1 h 1 v 4 h 1 v -4 h 1 v -1 h -1 v -15 h 15 v 1 h 1 v -1 h 4 v -1 h -4 v -1 h -1 v 1 h -15 v -15 h 1 v -1 h -1 v -4 z m 16,0 v 4 1 h 5 v -1 h -4 v -4 z m -36,36 v 1 h 4 v 4 h 1 v -4 -1 h -1 z m 36,0 v 1 4 h 1 v -4 h 4 v -1 h -4 z"
       id="rect12793-4-4-2-5-8-0" />
    <path
       style="fill:#d60000;fill-opacity:1;stroke:none"
       d="m 274,139 v 4 h -4 v 1 h 5 v -1 -4 z m 16,0 v 4 h -1 v 1 h 1 v 15 h -15 v -1 h -1 v 1 h -4 v 1 h 4 v 1 h 1 v -1 h 15 v 15 h -1 v 1 h 1 v 4 h 1 v -4 h 1 v -1 h -1 v -15 h 15 v 1 h 1 v -1 h 4 v -1 h -4 v -1 h -1 v 1 h -15 v -15 h 1 v -1 h -1 v -4 z m 16,0 v 4 1 h 5 v -1 h -4 v -4 z m -36,36 v 1 h 4 v 4 h 1 v -4 -1 h -1 z m 36,0 v 1 4 h 1 v -4 h 4 v -1 h -4 z"
       id="rect12793-4-4-2-5-6-3-5" />
    <path
       style="fill:#d60000;fill-opacity:1;stroke:none"
       d="m 324,139 v 4 h -4 v 1 h 5 v -1 -4 z m 16,0 v 4 h -1 v 1 h 1 v 15 h -15 v -1 h -1 v 1 h -4 v 1 h 4 v 1 h 1 v -1 h 15 v 15 h -1 v 1 h 1 v 4 h 1 v -4 h 1 v -1 h -1 v -15 h 15 v 1 h 1 v -1 h 4 v -1 h -4 v -1 h -1 v 1 h -15 v -15 h 1 v -1 h -1 v -4 z m 16,0 v 4 1 h 5 v -1 h -4 v -4 z m -36,36 v 1 h 4 v 4 h 1 v -4 -1 h -1 z m 36,0 v 1 4 h 1 v -4 h 4 v -1 h -4 z"
       id="rect12793-4-4-2-5-6-2-83-8" />
    <path
       style="fill:#d60000;fill-opacity:1;stroke:none"
       d="m 374,139 v 4 h -4 v 1 h 5 v -1 -4 z m 16,0 v 4 h -1 v 1 h 1 v 15 h -15 v -1 h -1 v 1 h -4 v 1 h 4 v 1 h 1 v -1 h 15 v 15 h -1 v 1 h 1 v 4 h 1 v -4 h 1 v -1 h -1 v -15 h 15 v 1 h 1 v -1 h 4 v -1 h -4 v -1 h -1 v 1 h -15 v -15 h 1 v -1 h -1 v -4 z m 16,0 v 4 1 h 5 v -1 h -4 v -4 z m -36,36 v 1 h 4 v 4 h 1 v -4 -1 h -1 z m 36,0 v 1 4 h 1 v -4 h 4 v -1 h -4 z"
       id="rect12793-4-4-2-5-6-2-8-8-7" />
    <path
       style="fill:#d60000;fill-opacity:1;stroke:none"
       d="m 24,189 v 4 h -4 v 1 h 5 v -1 -4 z m 16,0 v 4 h -1 v 1 h 1 v 15 H 25 v -1 h -1 v 1 h -4 v 1 h 4 v 1 h 1 v -1 h 15 v 15 h -1 v 1 h 1 v 4 h 1 v -4 h 1 v -1 h -1 v -15 h 15 v 1 h 1 v -1 h 4 v -1 h -4 v -1 h -1 v 1 H 41 v -15 h 1 v -1 h -1 v -4 z m 16,0 v 4 1 h 5 v -1 h -4 v -4 z m -36,36 v 1 h 4 v 4 h 1 v -4 -1 h -1 z m 36,0 v 1 4 h 1 v -4 h 4 v -1 h -4 z"
       id="rect12793-49-1-9" />
    <path
       style="fill:#d60000;fill-opacity:1;stroke:none"
       d="m 74,189 v 4 h -4 v 1 h 5 v -1 -4 z m 16,0 v 4 h -1 v 1 h 1 v 15 H 75 v -1 h -1 v 1 h -4 v 1 h 4 v 1 h 1 v -1 h 15 v 15 h -1 v 1 h 1 v 4 h 1 v -4 h 1 v -1 h -1 v -15 h 15 v 1 h 1 v -1 h 4 v -1 h -4 v -1 h -1 v 1 H 91 v -15 h 1 v -1 h -1 v -4 z m 16,0 v 4 1 h 5 v -1 h -4 v -4 z m -36,36 v 1 h 4 v 4 h 1 v -4 -1 h -1 z m 36,0 v 1 4 h 1 v -4 h 4 v -1 h -4 z"
       id="rect12793-4-1-9-8" />
    <path
       style="fill:#d60000;fill-opacity:1;stroke:none"
       d="m 124,189 v 4 h -4 v 1 h 5 v -1 -4 z m 16,0 v 4 h -1 v 1 h 1 v 15 h -15 v -1 h -1 v 1 h -4 v 1 h 4 v 1 h 1 v -1 h 15 v 15 h -1 v 1 h 1 v 4 h 1 v -4 h 1 v -1 h -1 v -15 h 15 v 1 h 1 v -1 h 4 v -1 h -4 v -1 h -1 v 1 h -15 v -15 h 1 v -1 h -1 v -4 z m 16,0 v 4 1 h 5 v -1 h -4 v -4 z m -36,36 v 1 h 4 v 4 h 1 v -4 -1 h -1 z m 36,0 v 1 4 h 1 v -4 h 4 v -1 h -4 z"
       id="rect12793-4-4-3-5-5" />
    <path
       style="fill:#d60000;fill-opacity:1;stroke:none"
       d="m 174,189 v 4 h -4 v 1 h 5 v -1 -4 z m 16,0 v 4 h -1 v 1 h 1 v 15 h -15 v -1 h -1 v 1 h -4 v 1 h 4 v 1 h 1 v -1 h 15 v 15 h -1 v 1 h 1 v 4 h 1 v -4 h 1 v -1 h -1 v -15 h 15 v 1 h 1 v -1 h 4 v -1 h -4 v -1 h -1 v 1 h -15 v -15 h 1 v -1 h -1 v -4 z m 16,0 v 4 1 h 5 v -1 h -4 v -4 z m -36,36 v 1 h 4 v 4 h 1 v -4 -1 h -1 z m 36,0 v 1 4 h 1 v -4 h 4 v -1 h -4 z"
       id="rect12793-4-4-2-2-1-8" />
    <path
       style="fill:#d60000;fill-opacity:1;stroke:none"
       d="m 224,189 v 4 h -4 v 1 h 5 v -1 -4 z m 16,0 v 4 h -1 v 1 h 1 v 15 h -15 v -1 h -1 v 1 h -4 v 1 h 4 v 1 h 1 v -1 h 15 v 15 h -1 v 1 h 1 v 4 h 1 v -4 h 1 v -1 h -1 v -15 h 15 v 1 h 1 v -1 h 4 v -1 h -4 v -1 h -1 v 1 h -15 v -15 h 1 v -1 h -1 v -4 z m 16,0 v 4 1 h 5 v -1 h -4 v -4 z m -36,36 v 1 h 4 v 4 h 1 v -4 -1 h -1 z m 36,0 v 1 4 h 1 v -4 h 4 v -1 h -4 z"
       id="rect12793-4-4-2-5-8-0-0" />
    <path
       style="fill:#d60000;fill-opacity:1;stroke:none"
       d="m 274,189 v 4 h -4 v 1 h 5 v -1 -4 z m 16,0 v 4 h -1 v 1 h 1 v 15 h -15 v -1 h -1 v 1 h -4 v 1 h 4 v 1 h 1 v -1 h 15 v 15 h -1 v 1 h 1 v 4 h 1 v -4 h 1 v -1 h -1 v -15 h 15 v 1 h 1 v -1 h 4 v -1 h -4 v -1 h -1 v 1 h -15 v -15 h 1 v -1 h -1 v -4 z m 16,0 v 4 1 h 5 v -1 h -4 v -4 z m -36,36 v 1 h 4 v 4 h 1 v -4 -1 h -1 z m 36,0 v 1 4 h 1 v -4 h 4 v -1 h -4 z"
       id="rect12793-4-4-2-5-6-3-5-9" />
    <path
       style="fill:#d60000;fill-opacity:1;stroke:none"
       d="m 324,189 v 4 h -4 v 1 h 5 v -1 -4 z m 16,0 v 4 h -1 v 1 h 1 v 15 h -15 v -1 h -1 v 1 h -4 v 1 h 4 v 1 h 1 v -1 h 15 v 15 h -1 v 1 h 1 v 4 h 1 v -4 h 1 v -1 h -1 v -15 h 15 v 1 h 1 v -1 h 4 v -1 h -4 v -1 h -1 v 1 h -15 v -15 h 1 v -1 h -1 v -4 z m 16,0 v 4 1 h 5 v -1 h -4 v -4 z m -36,36 v 1 h 4 v 4 h 1 v -4 -1 h -1 z m 36,0 v 1 4 h 1 v -4 h 4 v -1 h -4 z"
       id="rect12793-4-4-2-5-6-2-83-8-4" />
    <path
       style="fill:#d60000;fill-opacity:1;stroke:none"
       d="m 374,189 v 4 h -4 v 1 h 5 v -1 -4 z m 16,0 v 4 h -1 v 1 h 1 v 15 h -15 v -1 h -1 v 1 h -4 v 1 h 4 v 1 h 1 v -1 h 15 v 15 h -1 v 1 h 1 v 4 h 1 v -4 h 1 v -1 h -1 v -15 h 15 v 1 h 1 v -1 h 4 v -1 h -4 v -1 h -1 v 1 h -15 v -15 h 1 v -1 h -1 v -4 z m 16,0 v 4 1 h 5 v -1 h -4 v -4 z m -36,36 v 1 h 4 v 4 h 1 v -4 -1 h -1 z m 36,0 v 1 4 h 1 v -4 h 4 v -1 h -4 z"
       id="rect12793-4-4-2-5-6-2-8-8-7-7" />
    <path
       style="fill:#d60000;fill-opacity:1;stroke:none"
       d="m 24,239 v 4 h -4 v 1 h 5 v -1 -4 z m 16,0 v 4 h -1 v 1 h 1 v 15 H 25 v -1 h -1 v 1 h -4 v 1 h 4 v 1 h 1 v -1 h 15 v 15 h -1 v 1 h 1 v 4 h 1 v -4 h 1 v -1 h -1 v -15 h 15 v 1 h 1 v -1 h 4 v -1 h -4 v -1 h -1 v 1 H 41 v -15 h 1 v -1 h -1 v -4 z m 16,0 v 4 1 h 5 v -1 h -4 v -4 z m -36,36 v 1 h 4 v 4 h 1 v -4 -1 h -1 z m 36,0 v 1 4 h 1 v -4 h 4 v -1 h -4 z"
       id="rect12793-49-1-9-3" />
    <path
       style="fill:#d60000;fill-opacity:1;stroke:none"
       d="m 74,239 v 4 h -4 v 1 h 5 v -1 -4 z m 16,0 v 4 h -1 v 1 h 1 v 15 H 75 v -1 h -1 v 1 h -4 v 1 h 4 v 1 h 1 v -1 h 15 v 15 h -1 v 1 h 1 v 4 h 1 v -4 h 1 v -1 h -1 v -15 h 15 v 1 h 1 v -1 h 4 v -1 h -4 v -1 h -1 v 1 H 91 v -15 h 1 v -1 h -1 v -4 z m 16,0 v 4 1 h 5 v -1 h -4 v -4 z m -36,36 v 1 h 4 v 4 h 1 v -4 -1 h -1 z m 36,0 v 1 4 h 1 v -4 h 4 v -1 h -4 z"
       id="rect12793-4-1-9-8-1" />
    <path
       style="fill:#d60000;fill-opacity:1;stroke:none"
       d="m 124,239 v 4 h -4 v 1 h 5 v -1 -4 z m 16,0 v 4 h -1 v 1 h 1 v 15 h -15 v -1 h -1 v 1 h -4 v 1 h 4 v 1 h 1 v -1 h 15 v 15 h -1 v 1 h 1 v 4 h 1 v -4 h 1 v -1 h -1 v -15 h 15 v 1 h 1 v -1 h 4 v -1 h -4 v -1 h -1 v 1 h -15 v -15 h 1 v -1 h -1 v -4 z m 16,0 v 4 1 h 5 v -1 h -4 v -4 z m -36,36 v 1 h 4 v 4 h 1 v -4 -1 h -1 z m 36,0 v 1 4 h 1 v -4 h 4 v -1 h -4 z"
       id="rect12793-4-4-3-5-5-5" />
    <path
       style="fill:#d60000;fill-opacity:1;stroke:none"
       d="m 174,239 v 4 h -4 v 1 h 5 v -1 -4 z m 16,0 v 4 h -1 v 1 h 1 v 15 h -15 v -1 h -1 v 1 h -4 v 1 h 4 v 1 h 1 v -1 h 15 v 15 h -1 v 1 h 1 v 4 h 1 v -4 h 1 v -1 h -1 v -15 h 15 v 1 h 1 v -1 h 4 v -1 h -4 v -1 h -1 v 1 h -15 v -15 h 1 v -1 h -1 v -4 z m 16,0 v 4 1 h 5 v -1 h -4 v -4 z m -36,36 v 1 h 4 v 4 h 1 v -4 -1 h -1 z m 36,0 v 1 4 h 1 v -4 h 4 v -1 h -4 z"
       id="rect12793-4-4-2-2-1-8-5" />
    <path
       style="fill:#d60000;fill-opacity:1;stroke:none"
       d="m 224,239 v 4 h -4 v 1 h 5 v -1 -4 z m 16,0 v 4 h -1 v 1 h 1 v 15 h -15 v -1 h -1 v 1 h -4 v 1 h 4 v 1 h 1 v -1 h 15 v 15 h -1 v 1 h 1 v 4 h 1 v -4 h 1 v -1 h -1 v -15 h 15 v 1 h 1 v -1 h 4 v -1 h -4 v -1 h -1 v 1 h -15 v -15 h 1 v -1 h -1 v -4 z m 16,0 v 4 1 h 5 v -1 h -4 v -4 z m -36,36 v 1 h 4 v 4 h 1 v -4 -1 h -1 z m 36,0 v 1 4 h 1 v -4 h 4 v -1 h -4 z"
       id="rect12793-4-4-2-5-8-0-0-0" />
    <path
       style="fill:#d60000;fill-opacity:1;stroke:none"
       d="m 274,239 v 4 h -4 v 1 h 5 v -1 -4 z m 16,0 v 4 h -1 v 1 h 1 v 15 h -15 v -1 h -1 v 1 h -4 v 1 h 4 v 1 h 1 v -1 h 15 v 15 h -1 v 1 h 1 v 4 h 1 v -4 h 1 v -1 h -1 v -15 h 15 v 1 h 1 v -1 h 4 v -1 h -4 v -1 h -1 v 1 h -15 v -15 h 1 v -1 h -1 v -4 z m 16,0 v 4 1 h 5 v -1 h -4 v -4 z m -36,36 v 1 h 4 v 4 h 1 v -4 -1 h -1 z m 36,0 v 1 4 h 1 v -4 h 4 v -1 h -4 z"
       id="rect12793-4-4-2-5-6-3-5-9-9" />
    <path
       style="fill:#d60000;fill-opacity:1;stroke:none"
       d="m 324,239 v 4 h -4 v 1 h 5 v -1 -4 z m 16,0 v 4 h -1 v 1 h 1 v 15 h -15 v -1 h -1 v 1 h -4 v 1 h 4 v 1 h 1 v -1 h 15 v 15 h -1 v 1 h 1 v 4 h 1 v -4 h 1 v -1 h -1 v -15 h 15 v 1 h 1 v -1 h 4 v -1 h -4 v -1 h -1 v 1 h -15 v -15 h 1 v -1 h -1 v -4 z m 16,0 v 4 1 h 5 v -1 h -4 v -4 z m -36,36 v 1 h 4 v 4 h 1 v -4 -1 h -1 z m 36,0 v 1 4 h 1 v -4 h 4 v -1 h -4 z"
       id="rect12793-4-4-2-5-6-2-83-8-4-4" />
    <path
       style="fill:#d60000;fill-opacity:1;stroke:none"
       d="m 374,239 v 4 h -4 v 1 h 5 v -1 -4 z m 16,0 v 4 h -1 v 1 h 1 v 15 h -15 v -1 h -1 v 1 h -4 v 1 h 4 v 1 h 1 v -1 h 15 v 15 h -1 v 1 h 1 v 4 h 1 v -4 h 1 v -1 h -1 v -15 h 15 v 1 h 1 v -1 h 4 v -1 h -4 v -1 h -1 v 1 h -15 v -15 h 1 v -1 h -1 v -4 z m 16,0 v 4 1 h 5 v -1 h -4 v -4 z m -36,36 v 1 h 4 v 4 h 1 v -4 -1 h -1 z m 36,0 v 1 4 h 1 v -4 h 4 v -1 h -4 z"
       id="rect12793-4-4-2-5-6-2-8-8-7-7-3" />
    <path
       style="fill:#d60000;fill-opacity:1;stroke:none"
       d="m 24,289 v 4 h -4 v 1 h 5 v -1 -4 z m 16,0 v 4 h -1 v 1 h 1 v 15 H 25 v -1 h -1 v 1 h -4 v 1 h 4 v 1 h 1 v -1 h 15 v 15 h -1 v 1 h 1 v 4 h 1 v -4 h 1 v -1 h -1 v -15 h 15 v 1 h 1 v -1 h 4 v -1 h -4 v -1 h -1 v 1 H 41 v -15 h 1 v -1 h -1 v -4 z m 16,0 v 4 1 h 5 v -1 h -4 v -4 z m -36,36 v 1 h 4 v 4 h 1 v -4 -1 h -1 z m 36,0 v 1 4 h 1 v -4 h 4 v -1 h -4 z"
       id="rect12793-49-1-9-3-2" />
    <path
       style="fill:#d60000;fill-opacity:1;stroke:none"
       d="m 74,289 v 4 h -4 v 1 h 5 v -1 -4 z m 16,0 v 4 h -1 v 1 h 1 v 15 H 75 v -1 h -1 v 1 h -4 v 1 h 4 v 1 h 1 v -1 h 15 v 15 h -1 v 1 h 1 v 4 h 1 v -4 h 1 v -1 h -1 v -15 h 15 v 1 h 1 v -1 h 4 v -1 h -4 v -1 h -1 v 1 H 91 v -15 h 1 v -1 h -1 v -4 z m 16,0 v 4 1 h 5 v -1 h -4 v -4 z m -36,36 v 1 h 4 v 4 h 1 v -4 -1 h -1 z m 36,0 v 1 4 h 1 v -4 h 4 v -1 h -4 z"
       id="rect12793-4-1-9-8-1-9" />
    <path
       style="fill:#d60000;fill-opacity:1;stroke:none"
       d="m 124,289 v 4 h -4 v 1 h 5 v -1 -4 z m 16,0 v 4 h -1 v 1 h 1 v 15 h -15 v -1 h -1 v 1 h -4 v 1 h 4 v 1 h 1 v -1 h 15 v 15 h -1 v 1 h 1 v 4 h 1 v -4 h 1 v -1 h -1 v -15 h 15 v 1 h 1 v -1 h 4 v -1 h -4 v -1 h -1 v 1 h -15 v -15 h 1 v -1 h -1 v -4 z m 16,0 v 4 1 h 5 v -1 h -4 v -4 z m -36,36 v 1 h 4 v 4 h 1 v -4 -1 h -1 z m 36,0 v 1 4 h 1 v -4 h 4 v -1 h -4 z"
       id="rect12793-4-4-3-5-5-5-2" />
    <path
       style="fill:#d60000;fill-opacity:1;stroke:none"
       d="m 174,289 v 4 h -4 v 1 h 5 v -1 -4 z m 16,0 v 4 h -1 v 1 h 1 v 15 h -15 v -1 h -1 v 1 h -4 v 1 h 4 v 1 h 1 v -1 h 15 v 15 h -1 v 1 h 1 v 4 h 1 v -4 h 1 v -1 h -1 v -15 h 15 v 1 h 1 v -1 h 4 v -1 h -4 v -1 h -1 v 1 h -15 v -15 h 1 v -1 h -1 v -4 z m 16,0 v 4 1 h 5 v -1 h -4 v -4 z m -36,36 v 1 h 4 v 4 h 1 v -4 -1 h -1 z m 36,0 v 1 4 h 1 v -4 h 4 v -1 h -4 z"
       id="rect12793-4-4-2-2-1-8-5-6" />
    <path
       style="fill:#d60000;fill-opacity:1;stroke:none"
       d="m 224,289 v 4 h -4 v 1 h 5 v -1 -4 z m 16,0 v 4 h -1 v 1 h 1 v 15 h -15 v -1 h -1 v 1 h -4 v 1 h 4 v 1 h 1 v -1 h 15 v 15 h -1 v 1 h 1 v 4 h 1 v -4 h 1 v -1 h -1 v -15 h 15 v 1 h 1 v -1 h 4 v -1 h -4 v -1 h -1 v 1 h -15 v -15 h 1 v -1 h -1 v -4 z m 16,0 v 4 1 h 5 v -1 h -4 v -4 z m -36,36 v 1 h 4 v 4 h 1 v -4 -1 h -1 z m 36,0 v 1 4 h 1 v -4 h 4 v -1 h -4 z"
       id="rect12793-4-4-2-5-8-0-0-0-7" />
    <path
       style="fill:#d60000;fill-opacity:1;stroke:none"
       d="m 274,289 v 4 h -4 v 1 h 5 v -1 -4 z m 16,0 v 4 h -1 v 1 h 1 v 15 h -15 v -1 h -1 v 1 h -4 v 1 h 4 v 1 h 1 v -1 h 15 v 15 h -1 v 1 h 1 v 4 h 1 v -4 h 1 v -1 h -1 v -15 h 15 v 1 h 1 v -1 h 4 v -1 h -4 v -1 h -1 v 1 h -15 v -15 h 1 v -1 h -1 v -4 z m 16,0 v 4 1 h 5 v -1 h -4 v -4 z m -36,36 v 1 h 4 v 4 h 1 v -4 -1 h -1 z m 36,0 v 1 4 h 1 v -4 h 4 v -1 h -4 z"
       id="rect12793-4-4-2-5-6-3-5-9-9-5" />
    <path
       style="fill:#d60000;fill-opacity:1;stroke:none"
       d="m 324,289 v 4 h -4 v 1 h 5 v -1 -4 z m 16,0 v 4 h -1 v 1 h 1 v 15 h -15 v -1 h -1 v 1 h -4 v 1 h 4 v 1 h 1 v -1 h 15 v 15 h -1 v 1 h 1 v 4 h 1 v -4 h 1 v -1 h -1 v -15 h 15 v 1 h 1 v -1 h 4 v -1 h -4 v -1 h -1 v 1 h -15 v -15 h 1 v -1 h -1 v -4 z m 16,0 v 4 1 h 5 v -1 h -4 v -4 z m -36,36 v 1 h 4 v 4 h 1 v -4 -1 h -1 z m 36,0 v 1 4 h 1 v -4 h 4 v -1 h -4 z"
       id="rect12793-4-4-2-5-6-2-83-8-4-4-6" />
    <path
       style="fill:#d60000;fill-opacity:1;stroke:none"
       d="m 374,289 v 4 h -4 v 1 h 5 v -1 -4 z m 16,0 v 4 h -1 v 1 h 1 v 15 h -15 v -1 h -1 v 1 h -4 v 1 h 4 v 1 h 1 v -1 h 15 v 15 h -1 v 1 h 1 v 4 h 1 v -4 h 1 v -1 h -1 v -15 h 15 v 1 h 1 v -1 h 4 v -1 h -4 v -1 h -1 v 1 h -15 v -15 h 1 v -1 h -1 v -4 z m 16,0 v 4 1 h 5 v -1 h -4 v -4 z m -36,36 v 1 h 4 v 4 h 1 v -4 -1 h -1 z m 36,0 v 1 4 h 1 v -4 h 4 v -1 h -4 z"
       id="rect12793-4-4-2-5-6-2-8-8-7-7-3-1" />
  </g>
  <g
     id="layer2"
     transform="translate(-323.4752,-89.9752)"
     style="display:none;opacity:0.73308273">
    <rect
       style="fill:#000000;fill-opacity:1;stroke:none"
       id="rect11944"
       width="20"
       height="331"
       x="0"
       y="19" />
    <rect
       style="fill:#000000;fill-opacity:1;stroke:none"
       id="rect12454"
       width="410"
       height="20"
       x="20"
       y="19" />
    <rect
       style="fill:#000000;fill-opacity:1;stroke:none"
       id="rect11944-6"
       width="9"
       height="331"
       x="61"
       y="19" />
    <rect
       style="fill:#000000;fill-opacity:1;stroke:none"
       id="rect11944-6-3"
       width="9"
       height="331"
       x="111"
       y="19" />
    <rect
       style="fill:#000000;fill-opacity:1;stroke:none"
       id="rect11944-6-3-5"
       width="9"
       height="331"
       x="161"
       y="19" />
    <rect
       style="fill:#000000;fill-opacity:1;stroke:none"
       id="rect11944-6-3-5-8"
       width="9"
       height="331"
       x="211"
       y="19" />
    <rect
       style="fill:#000000;fill-opacity:1;stroke:none"
       id="rect11944-6-3-5-8-6"
       width="9"
       height="331"
       x="261"
       y="19" />
    <rect
       style="fill:#000000;fill-opacity:1;stroke:none"
       id="rect11944-6-3-5-8-6-2"
       width="9"
       height="331"
       x="311"
       y="19" />
    <rect
       style="fill:#000000;fill-opacity:1;stroke:none"
       id="rect11944-6-3-5-8-6-2-5"
       width="9"
       height="331"
       x="361"
       y="19" />
    <rect
       style="fill:#000000;fill-opacity:1;stroke:none"
       id="rect11944-6-3-5-8-6-2-5-3"
       width="20"
       height="331"
       x="411"
       y="19" />
    <rect
       style="fill:#000000;fill-opacity:1;stroke:none"
       id="rect11944-6-6"
       width="9"
       height="431"
       x="80"
       y="-431"
       transform="rotate(90)" />
    <rect
       style="fill:#000000;fill-opacity:1;stroke:none"
       id="rect11944-6-6-4"
       width="9"
       height="431"
       x="130"
       y="-431"
       transform="rotate(90)" />
    <rect
       style="fill:#000000;fill-opacity:1;stroke:none"
       id="rect11944-6-6-4-7"
       width="9"
       height="431"
       x="180"
       y="-431"
       transform="rotate(90)" />
    <rect
       style="fill:#000000;fill-opacity:1;stroke:none"
       id="rect11944-6-6-4-7-8"
       width="9"
       height="431"
       x="230"
       y="-431"
       transform="rotate(90)" />
    <rect
       style="fill:#000000;fill-opacity:1;stroke:none"
       id="rect11944-6-6-4-7-8-8"
       width="9"
       height="431"
       x="280"
       y="-431"
       transform="rotate(90)" />
    <rect
       style="fill:#000000;fill-opacity:1;stroke:none"
       id="rect11944-6-6-4-7-8-8-7"
       width="20"
       height="431"
       x="330"
       y="-431"
       transform="rotate(90)" />
    <text
       xml:space="preserve"
       style="font-style:normal;font-variant:normal;font-weight:normal;font-stretch:normal;line-height:0%;font-family:Oxygen;-inkscape-font-specification:Oxygen;letter-spacing:0px;word-spacing:0px;fill:#ffffff;fill-opacity:1;stroke:none"
       x="19.640625"
       y="36.75"
       id="text15122"><tspan
         style="font-size:6px;line-height:1.25"
         id="tspan15124"
         x="19.640625"
         y="36.75">default</tspan></text>
    <text
       xml:space="preserve"
       style="font-style:normal;font-variant:normal;font-weight:normal;font-stretch:normal;line-height:0%;font-family:Oxygen;-inkscape-font-specification:Oxygen;letter-spacing:0px;word-spacing:0px;display:inline;opacity:0.73308273;fill:#ffffff;fill-opacity:1;stroke:none"
       x="119.64062"
       y="36.75"
       id="text15122-5"><tspan
         style="font-size:6px;line-height:1.25"
         id="tspan15124-4"
         x="119.64062"
         y="36.75">right_ptr</tspan></text>
    <text
       xml:space="preserve"
       style="font-style:normal;font-variant:normal;font-weight:normal;font-stretch:normal;line-height:0%;font-family:Oxygen;-inkscape-font-specification:Oxygen;letter-spacing:0px;word-spacing:0px;display:inline;opacity:0.73308273;fill:#ffffff;fill-opacity:1;stroke:none"
       x="169.64062"
       y="36.75"
       id="text15122-5-9"><tspan
         style="font-size:6px;line-height:1.25"
         id="tspan15124-4-5"
         x="169.64062"
         y="36.75">help</tspan></text>
    <text
       xml:space="preserve"
       style="font-style:normal;font-variant:normal;font-weight:normal;font-stretch:normal;line-height:0%;font-family:Oxygen;-inkscape-font-specification:Oxygen;letter-spacing:0px;word-spacing:0px;display:inline;opacity:0.73308273;fill:#ffffff;fill-opacity:1;stroke:none"
       x="269.64062"
       y="36.75"
       id="text15122-5-9-0"><tspan
         style="font-size:6px;line-height:1.25"
         id="tspan15124-4-5-3"
         x="269.64062"
         y="36.75">no-drop</tspan></text>
    <text
       xml:space="preserve"
       style="font-style:normal;font-variant:normal;font-weight:normal;font-stretch:normal;line-height:0%;font-family:Oxygen;-inkscape-font-specification:Oxygen;letter-spacing:0px;word-spacing:0px;display:inline;opacity:0.73308273;fill:#ffffff;fill-opacity:1;stroke:none"
       x="319.64062"
       y="36.75"
       id="text15122-5-9-0-9"><tspan
         style="font-size:6px;line-height:1.25"
         id="tspan15124-4-5-3-9"
         x="319.64062"
         y="36.75">not-allowed</tspan></text>
    <text
       xml:space="preserve"
       style="font-style:normal;font-variant:normal;font-weight:normal;font-stretch:normal;line-height:0%;font-family:Oxygen;-inkscape-font-specification:Oxygen;letter-spacing:0px;word-spacing:0px;display:inline;opacity:0.73308273;fill:#ffffff;fill-opacity:1;stroke:none"
       x="219.64062"
       y="36.75"
       id="text15122-5-9-3"><tspan
         style="font-size:6px;line-height:1.25"
         id="tspan15124-4-5-6"
         x="219.64062"
         y="36.75">copy</tspan></text>
    <text
       xml:space="preserve"
       style="font-style:normal;font-variant:normal;font-weight:normal;font-stretch:normal;line-height:0%;font-family:Oxygen;-inkscape-font-specification:Oxygen;letter-spacing:0px;word-spacing:0px;display:inline;opacity:0.73308273;fill:#ffffff;fill-opacity:1;stroke:none"
       x="69.640617"
       y="36.75"
       id="text15122-5-4"><tspan
         style="font-size:6px;line-height:1.25"
         id="tspan15124-4-9"
         x="69.640617"
         y="36.75">center_ptr</tspan></text>
    <text
       xml:space="preserve"
       style="font-style:normal;font-variant:normal;font-weight:normal;font-stretch:normal;line-height:0%;font-family:Oxygen;-inkscape-font-specification:Oxygen;letter-spacing:0px;word-spacing:0px;display:inline;opacity:0.73308273;fill:#ffffff;fill-opacity:1;stroke:none"
       x="19.640625"
       y="86.75"
       id="text15122-8"><tspan
         style="font-size:6px;line-height:1.25"
         id="tspan15124-0"
         x="19.640625"
         y="86.75">pointer</tspan></text>
    <text
       xml:space="preserve"
       style="font-style:normal;font-variant:normal;font-weight:normal;font-stretch:normal;line-height:0%;font-family:Oxygen;-inkscape-font-specification:Oxygen;letter-spacing:0px;word-spacing:0px;display:inline;opacity:0.73308273;fill:#ffffff;fill-opacity:1;stroke:none"
       x="119.64062"
       y="86.75"
       id="text15122-5-1"><tspan
         style="font-size:6px;line-height:1.25"
         id="tspan15124-4-0"
         x="119.64062"
         y="86.75">dnd-move</tspan></text>
    <text
       xml:space="preserve"
       style="font-style:normal;font-variant:normal;font-weight:normal;font-stretch:normal;line-height:0%;font-family:Oxygen;-inkscape-font-specification:Oxygen;letter-spacing:0px;word-spacing:0px;display:inline;opacity:0.73308273;fill:#ffffff;fill-opacity:1;stroke:none"
       x="169.64062"
       y="86.75"
       id="text15122-5-9-1"><tspan
         style="font-size:6px;line-height:1.25"
         id="tspan15124-4-5-33"
         x="169.64062"
         y="86.75">dnd-no-drop</tspan></text>
    <text
       xml:space="preserve"
       style="font-style:normal;font-variant:normal;font-weight:normal;font-stretch:normal;line-height:0%;font-family:Oxygen;-inkscape-font-specification:Oxygen;letter-spacing:0px;word-spacing:0px;display:inline;opacity:0.73308273;fill:#ffffff;fill-opacity:1;stroke:none"
       x="269.64062"
       y="86.75"
       id="text15122-5-9-0-3"><tspan
         style="font-size:6px;line-height:1.25"
         id="tspan15124-4-5-3-7"
         x="269.64062"
         y="86.75">progress</tspan></text>
    <text
       xml:space="preserve"
       style="font-style:normal;font-variant:normal;font-weight:normal;font-stretch:normal;line-height:0%;font-family:Oxygen;-inkscape-font-specification:Oxygen;letter-spacing:0px;word-spacing:0px;display:inline;opacity:0.73308273;fill:#ffffff;fill-opacity:1;stroke:none"
       x="319.64062"
       y="86.75"
       id="text15122-5-9-0-9-1"><tspan
         style="font-size:6px;line-height:1.25"
         id="tspan15124-4-5-3-9-3"
         x="319.64062"
         y="86.75">wait</tspan></text>
    <text
       xml:space="preserve"
       style="font-style:normal;font-variant:normal;font-weight:normal;font-stretch:normal;line-height:0%;font-family:Oxygen;-inkscape-font-specification:Oxygen;letter-spacing:0px;word-spacing:0px;display:inline;opacity:0.73308273;fill:#ffffff;fill-opacity:1;stroke:none"
       x="219.64062"
       y="86.75"
       id="text15122-5-9-3-3"><tspan
         style="font-size:6px;line-height:1.25"
         id="tspan15124-4-5-6-9"
         x="219.64062"
         y="86.75">alias</tspan></text>
    <text
       xml:space="preserve"
       style="font-style:normal;font-variant:normal;font-weight:normal;font-stretch:normal;line-height:0%;font-family:Oxygen;-inkscape-font-specification:Oxygen;letter-spacing:0px;word-spacing:0px;display:inline;opacity:0.73308273;fill:#ffffff;fill-opacity:1;stroke:none"
       x="69.640617"
       y="86.75"
       id="text15122-5-4-7"><tspan
         style="font-size:6px;line-height:1.25"
         id="tspan15124-4-9-7"
         x="69.640617"
         y="86.75">openhand</tspan></text>
    <text
       xml:space="preserve"
       style="font-style:normal;font-variant:normal;font-weight:normal;font-stretch:normal;line-height:0%;font-family:Oxygen;-inkscape-font-specification:Oxygen;letter-spacing:0px;word-spacing:0px;display:inline;opacity:0.73308273;fill:#ffffff;fill-opacity:1;stroke:none"
       x="19.640625"
       y="136.75"
       id="text15122-8-5"><tspan
         style="font-size:6px;line-height:1.25"
         id="tspan15124-0-6"
         x="19.640625"
         y="136.75">draft</tspan></text>
    <text
       xml:space="preserve"
       style="font-style:normal;font-variant:normal;font-weight:normal;font-stretch:normal;line-height:0%;font-family:Oxygen;-inkscape-font-specification:Oxygen;letter-spacing:0px;word-spacing:0px;display:inline;opacity:0.73308273;fill:#ffffff;fill-opacity:1;stroke:none"
       x="119.64062"
       y="136.75"
       id="text15122-5-1-1"><tspan
         style="font-size:6px;line-height:1.25"
         id="tspan15124-4-0-5"
         x="119.64062"
         y="136.75">color-picker</tspan></text>
    <text
       xml:space="preserve"
       style="font-style:normal;font-variant:normal;font-weight:normal;font-stretch:normal;line-height:0%;font-family:Oxygen;-inkscape-font-specification:Oxygen;letter-spacing:0px;word-spacing:0px;display:inline;opacity:0.73308273;fill:#ffffff;fill-opacity:1;stroke:none"
       x="169.64062"
       y="136.75"
       id="text15122-5-9-1-1"><tspan
         style="font-size:6px;line-height:1.25"
         id="tspan15124-4-5-33-5"
         x="169.64062"
         y="136.75">zoom-in</tspan></text>
    <text
       xml:space="preserve"
       style="font-style:normal;font-variant:normal;font-weight:normal;font-stretch:normal;line-height:0%;font-family:Oxygen;-inkscape-font-specification:Oxygen;letter-spacing:0px;word-spacing:0px;display:inline;opacity:0.73308273;fill:#ffffff;fill-opacity:1;stroke:none"
       x="269.64062"
       y="136.75"
       id="text15122-5-9-0-3-6"><tspan
         style="font-size:6px;line-height:1.25"
         id="tspan15124-4-5-3-7-8"
         x="269.64062"
         y="136.75">x-cursor</tspan></text>
    <text
       xml:space="preserve"
       style="font-style:normal;font-variant:normal;font-weight:normal;font-stretch:normal;line-height:0%;font-family:Oxygen;-inkscape-font-specification:Oxygen;letter-spacing:0px;word-spacing:0px;display:inline;opacity:0.73308273;fill:#ffffff;fill-opacity:1;stroke:none"
       x="319.64062"
       y="136.75"
       id="text15122-5-9-0-9-1-8"><tspan
         style="font-size:6px;line-height:1.25"
         id="tspan15124-4-5-3-9-3-0"
         x="319.64062"
         y="136.75">wayland-cursor</tspan></text>
    <text
       xml:space="preserve"
       style="font-style:normal;font-variant:normal;font-weight:normal;font-stretch:normal;line-height:0%;font-family:Oxygen;-inkscape-font-specification:Oxygen;letter-spacing:0px;word-spacing:0px;display:inline;opacity:0.73308273;fill:#ffffff;fill-opacity:1;stroke:none"
       x="219.64062"
       y="136.75"
       id="text15122-5-9-3-3-7"><tspan
         style="font-size:6px;line-height:1.25"
         id="tspan15124-4-5-6-9-9"
         x="219.64062"
         y="136.75">zoom-out</tspan></text>
    <text
       xml:space="preserve"
       style="font-style:normal;font-variant:normal;font-weight:normal;font-stretch:normal;line-height:0%;font-family:Oxygen;-inkscape-font-specification:Oxygen;letter-spacing:0px;word-spacing:0px;display:inline;opacity:0.73308273;fill:#ffffff;fill-opacity:1;stroke:none"
       x="69.640617"
       y="136.75"
       id="text15122-5-4-7-5"><tspan
         style="font-size:6px;line-height:1.25"
         id="tspan15124-4-9-7-4"
         x="69.640617"
         y="136.75">pencil</tspan></text>
    <text
       xml:space="preserve"
       style="font-style:normal;font-variant:normal;font-weight:normal;font-stretch:normal;line-height:0%;font-family:Oxygen;-inkscape-font-specification:Oxygen;letter-spacing:0px;word-spacing:0px;display:inline;opacity:0.73308273;fill:#ffffff;fill-opacity:1;stroke:none"
       x="19.640625"
       y="186.75"
       id="text15122-8-5-4"><tspan
         style="font-size:6px;line-height:1.25"
         id="tspan15124-0-6-5"
         x="19.640625"
         y="186.75">text</tspan></text>
    <text
       xml:space="preserve"
       style="font-style:normal;font-variant:normal;font-weight:normal;font-stretch:normal;line-height:0%;font-family:Oxygen;-inkscape-font-specification:Oxygen;letter-spacing:0px;word-spacing:0px;display:inline;opacity:0.73308273;fill:#ffffff;fill-opacity:1;stroke:none"
       x="119.64062"
       y="186.75"
       id="text15122-5-1-1-4"><tspan
         style="font-size:6px;line-height:1.25"
         id="tspan15124-4-0-5-6"
         x="119.64062"
         y="186.75">up-arrow</tspan></text>
    <text
       xml:space="preserve"
       style="font-style:normal;font-variant:normal;font-weight:normal;font-stretch:normal;line-height:0%;font-family:Oxygen;-inkscape-font-specification:Oxygen;letter-spacing:0px;word-spacing:0px;display:inline;opacity:0.73308273;fill:#ffffff;fill-opacity:1;stroke:none"
       x="169.64062"
       y="186.75"
       id="text15122-5-9-1-1-8"><tspan
         style="font-size:6px;line-height:1.25"
         id="tspan15124-4-5-33-5-4"
         x="169.64062"
         y="186.75">down-arrow</tspan></text>
    <text
       xml:space="preserve"
       style="font-style:normal;font-variant:normal;font-weight:normal;font-stretch:normal;line-height:0%;font-family:Oxygen;-inkscape-font-specification:Oxygen;letter-spacing:0px;word-spacing:0px;display:inline;opacity:0.73308273;fill:#ffffff;fill-opacity:1;stroke:none"
       x="269.64062"
       y="186.75"
       id="text15122-5-9-0-3-6-7"><tspan
         style="font-size:6px;line-height:1.25"
         id="tspan15124-4-5-3-7-8-2"
         x="269.64062"
         y="186.75">right-arrow</tspan></text>
    <text
       xml:space="preserve"
       style="font-style:normal;font-variant:normal;font-weight:normal;font-stretch:normal;line-height:0%;font-family:Oxygen;-inkscape-font-specification:Oxygen;letter-spacing:0px;word-spacing:0px;display:inline;opacity:0.73308273;fill:#ffffff;fill-opacity:1;stroke:none"
       x="319.64062"
       y="186.75"
       id="text15122-5-9-0-9-1-8-9"><tspan
         style="font-size:6px;line-height:1.25"
         id="tspan15124-4-5-3-9-3-0-2"
         x="319.64062"
         y="186.75">pirate</tspan></text>
    <text
       xml:space="preserve"
       style="font-style:normal;font-variant:normal;font-weight:normal;font-stretch:normal;line-height:0%;font-family:Oxygen;-inkscape-font-specification:Oxygen;letter-spacing:0px;word-spacing:0px;display:inline;opacity:0.73308273;fill:#ffffff;fill-opacity:1;stroke:none"
       x="219.64062"
       y="186.75"
       id="text15122-5-9-3-3-7-9"><tspan
         style="font-size:6px;line-height:1.25"
         id="tspan15124-4-5-6-9-9-1"
         x="219.64062"
         y="186.75">left-arrow</tspan></text>
    <text
       xml:space="preserve"
       style="font-style:normal;font-variant:normal;font-weight:normal;font-stretch:normal;line-height:0%;font-family:Oxygen;-inkscape-font-specification:Oxygen;letter-spacing:0px;word-spacing:0px;display:inline;opacity:0.73308273;fill:#ffffff;fill-opacity:1;stroke:none"
       x="69.640617"
       y="186.75"
       id="text15122-5-4-7-5-5"><tspan
         style="font-size:6px;line-height:1.25"
         id="tspan15124-4-9-7-4-2"
         x="69.640617"
         y="186.75">vertical-text</tspan></text>
    <text
       xml:space="preserve"
       style="font-style:normal;font-variant:normal;font-weight:normal;font-stretch:normal;line-height:0%;font-family:Oxygen;-inkscape-font-specification:Oxygen;letter-spacing:0px;word-spacing:0px;display:inline;opacity:0.73308273;fill:#ffffff;fill-opacity:1;stroke:none"
       x="19.640625"
       y="236.75"
       id="text15122-8-5-4-0"><tspan
         style="font-size:6px;line-height:1.25"
         x="19.640625"
         y="236.75"
         id="tspan15525">size_ver</tspan></text>
    <text
       xml:space="preserve"
       style="font-style:normal;font-variant:normal;font-weight:normal;font-stretch:normal;line-height:0%;font-family:Oxygen;-inkscape-font-specification:Oxygen;letter-spacing:0px;word-spacing:0px;display:inline;opacity:0.73308273;fill:#ffffff;fill-opacity:1;stroke:none"
       x="119.64062"
       y="236.75"
       id="text15122-5-1-1-4-9"><tspan
         style="font-size:6px;line-height:1.25"
         id="tspan15124-4-0-5-6-6"
         x="119.64062"
         y="236.75">size_bdiag</tspan></text>
    <text
       xml:space="preserve"
       style="font-style:normal;font-variant:normal;font-weight:normal;font-stretch:normal;line-height:0%;font-family:Oxygen;-inkscape-font-specification:Oxygen;letter-spacing:0px;word-spacing:0px;display:inline;opacity:0.73308273;fill:#ffffff;fill-opacity:1;stroke:none"
       x="169.64062"
       y="236.75"
       id="text15122-5-9-1-1-8-1"><tspan
         style="font-size:6px;line-height:1.25"
         id="tspan15124-4-5-33-5-4-2"
         x="169.64062"
         y="236.75">size_fdiag</tspan></text>
    <text
       xml:space="preserve"
       style="font-style:normal;font-variant:normal;font-weight:normal;font-stretch:normal;line-height:0%;font-family:Oxygen;-inkscape-font-specification:Oxygen;letter-spacing:0px;word-spacing:0px;display:inline;opacity:0.73308273;fill:#ffffff;fill-opacity:1;stroke:none"
       x="269.64062"
       y="236.75"
       id="text15122-5-9-0-3-6-7-3"><tspan
         style="font-size:6px;line-height:1.25"
         id="tspan15124-4-5-3-7-8-2-5"
         x="269.64062"
         y="236.75">cell</tspan></text>
    <text
       xml:space="preserve"
       style="font-style:normal;font-variant:normal;font-weight:normal;font-stretch:normal;line-height:0%;font-family:Oxygen;-inkscape-font-specification:Oxygen;letter-spacing:0px;word-spacing:0px;display:inline;opacity:0.73308273;fill:#ffffff;fill-opacity:1;stroke:none"
       x="319.64062"
       y="236.75"
       id="text15122-5-9-0-9-1-8-9-7"><tspan
         style="font-size:6px;line-height:1.25"
         id="tspan15124-4-5-3-9-3-0-2-1"
         x="319.64062"
         y="236.75">crosshair</tspan></text>
    <text
       xml:space="preserve"
       style="font-style:normal;font-variant:normal;font-weight:normal;font-stretch:normal;line-height:0%;font-family:Oxygen;-inkscape-font-specification:Oxygen;letter-spacing:0px;word-spacing:0px;display:inline;opacity:0.73308273;fill:#ffffff;fill-opacity:1;stroke:none"
       x="219.64062"
       y="236.75"
       id="text15122-5-9-3-3-7-9-3"><tspan
         style="font-size:6px;line-height:1.25"
         id="tspan15124-4-5-6-9-9-1-7"
         x="219.64062"
         y="236.75">fleur</tspan></text>
    <text
       xml:space="preserve"
       style="font-style:normal;font-variant:normal;font-weight:normal;font-stretch:normal;line-height:0%;font-family:Oxygen;-inkscape-font-specification:Oxygen;letter-spacing:0px;word-spacing:0px;display:inline;opacity:0.73308273;fill:#ffffff;fill-opacity:1;stroke:none"
       x="69.640617"
       y="236.75"
       id="text15122-5-4-7-5-5-3"><tspan
         style="font-size:6px;line-height:1.25"
         id="tspan15124-4-9-7-4-2-1"
         x="69.640617"
         y="236.75">size_hor</tspan></text>
    <text
       xml:space="preserve"
       style="font-style:normal;font-variant:normal;font-weight:normal;font-stretch:normal;line-height:0%;font-family:Oxygen;-inkscape-font-specification:Oxygen;letter-spacing:0px;word-spacing:0px;display:inline;opacity:0.73308273;fill:#ffffff;fill-opacity:1;stroke:none"
       x="19.640625"
       y="286.75"
       id="text15122-8-5-4-0-7"><tspan
         style="font-size:6px;line-height:1.25"
         x="19.640625"
         y="286.75"
         id="tspan15525-9">row-resize</tspan></text>
    <text
       xml:space="preserve"
       style="font-style:normal;font-variant:normal;font-weight:normal;font-stretch:normal;line-height:0%;font-family:Oxygen;-inkscape-font-specification:Oxygen;letter-spacing:0px;word-spacing:0px;display:inline;opacity:0.73308273;fill:#ffffff;fill-opacity:1;stroke:none"
       x="119.64062"
       y="286.75"
       id="text15122-5-1-1-4-9-7"><tspan
         style="font-size:6px;line-height:1.25"
         id="tspan15124-4-0-5-6-6-3"
         x="119.64062"
         y="286.75">top_side</tspan></text>
    <text
       xml:space="preserve"
       style="font-style:normal;font-variant:normal;font-weight:normal;font-stretch:normal;line-height:0%;font-family:Oxygen;-inkscape-font-specification:Oxygen;letter-spacing:0px;word-spacing:0px;display:inline;opacity:0.73308273;fill:#ffffff;fill-opacity:1;stroke:none"
       x="169.64062"
       y="286.75"
       id="text15122-5-9-1-1-8-1-4"><tspan
         style="font-size:6px;line-height:1.25"
         id="tspan15124-4-5-33-5-4-2-1"
         x="169.64062"
         y="286.75">bottom_side</tspan></text>
    <text
       xml:space="preserve"
       style="font-style:normal;font-variant:normal;font-weight:normal;font-stretch:normal;line-height:0%;font-family:Oxygen;-inkscape-font-specification:Oxygen;letter-spacing:0px;word-spacing:0px;display:inline;opacity:0.73308273;fill:#ffffff;fill-opacity:1;stroke:none"
       x="269.64062"
       y="286.75"
       id="text15122-5-9-0-3-6-7-3-9"><tspan
         style="font-size:6px;line-height:1.25"
         id="tspan15124-4-5-3-7-8-2-5-2"
         x="269.64062"
         y="286.75">right_side</tspan></text>
    <text
       xml:space="preserve"
       style="font-style:normal;font-variant:normal;font-weight:normal;font-stretch:normal;line-height:0%;font-family:Oxygen;-inkscape-font-specification:Oxygen;letter-spacing:0px;word-spacing:0px;display:inline;opacity:0.73308273;fill:#ffffff;fill-opacity:1;stroke:none"
       x="219.64062"
       y="286.75"
       id="text15122-5-9-3-3-7-9-3-6"><tspan
         style="font-size:6px;line-height:1.25"
         id="tspan15124-4-5-6-9-9-1-7-8"
         x="219.64062"
         y="286.75">left_side</tspan></text>
    <text
       xml:space="preserve"
       style="font-style:normal;font-variant:normal;font-weight:normal;font-stretch:normal;line-height:0%;font-family:Oxygen;-inkscape-font-specification:Oxygen;letter-spacing:0px;word-spacing:0px;display:inline;opacity:0.73308273;fill:#ffffff;fill-opacity:1;stroke:none"
       x="69.640617"
       y="286.75"
       id="text15122-5-4-7-5-5-3-6"><tspan
         style="font-size:6px;line-height:1.25"
         id="tspan15124-4-9-7-4-2-1-5"
         x="69.640617"
         y="286.75">col-resize</tspan></text>
    <text
       xml:space="preserve"
       style="font-style:normal;font-variant:normal;font-weight:normal;font-stretch:normal;line-height:0%;font-family:Oxygen;-inkscape-font-specification:Oxygen;letter-spacing:0px;word-spacing:0px;display:inline;opacity:0.73308273;fill:#ffffff;fill-opacity:1;stroke:none"
       x="369.64062"
       y="36.75"
       id="text15122-5-9-0-9-17"><tspan
         style="font-size:6px;line-height:1.25"
         id="tspan15124-4-5-3-9-6"
         x="369.64062"
         y="36.75">all-scroll</tspan></text>
    <text
       xml:space="preserve"
       style="font-style:normal;font-variant:normal;font-weight:normal;font-stretch:normal;line-height:0%;font-family:Oxygen;-inkscape-font-specification:Oxygen;letter-spacing:0px;word-spacing:0px;display:inline;opacity:0.73308273;fill:#ffffff;fill-opacity:1;stroke:none"
       x="369.64062"
       y="86.75"
       id="text15122-4"><tspan
         style="font-size:6px;line-height:1.25"
         id="tspan15124-7"
         x="369.64062"
         y="86.75">context-menu</tspan></text>
  </g>
  <g
     transform="translate(-323.4752,-70.9752)"
     id="webslicer-layer"
     style="display:none">
    <rect
       id="center_ptr"
       x="74"
       y="20"
       width="32"
       height="32"
       style="opacity:0.5;fill:#ff0000">
      <desc
         id="desc16344">format: png
dpi: 90
layout-disposition: bg-el-norepeat
layout-position-anchor: tl</desc>
    </rect>
    <rect
       style="opacity:0.5;fill:#ff0000"
       id="progress-01"
       x="30"
       y="391"
       width="32"
       height="32">
      <desc
         id="desc60995">format: png
dpi: 90
layout-disposition: bg-el-norepeat
layout-position-anchor: tl</desc>
    </rect>
    <rect
       style="opacity:0.5;fill:#ff0000"
       id="default"
       x="20"
       y="20"
       width="32"
       height="32">
      <desc
         id="desc13907">format: png
dpi: 90
layout-disposition: bg-el-norepeat
layout-position-anchor: tl</desc>
    </rect>
    <rect
       height="32"
       width="32"
       y="20"
       x="120"
       id="right_ptr"
       style="opacity:0.5;fill:#ff0000">
      <desc
         id="desc14716">format: png
dpi: 90
layout-disposition: bg-el-norepeat
layout-position-anchor: tl</desc>
    </rect>
    <rect
       height="32"
       width="32"
       y="20"
       x="170"
       id="help"
       style="opacity:0.5;fill:#ff0000">
      <desc
         id="desc17371">format: png
dpi: 90
layout-disposition: bg-el-norepeat
layout-position-anchor: tl</desc>
    </rect>
    <rect
       id="copy"
       x="220"
       y="20"
       width="32"
       height="32"
       style="opacity:0.5;fill:#ff0000">
      <desc
         id="desc18402">format: png
dpi: 90
layout-disposition: bg-el-norepeat
layout-position-anchor: tl</desc>
    </rect>
    <rect
       height="32"
       width="32"
       y="20"
       x="270"
       id="no-drop"
       style="opacity:0.5;fill:#ff0000">
      <desc
         id="desc19435">format: png
dpi: 90
layout-disposition: bg-el-norepeat
layout-position-anchor: tl</desc>
    </rect>
    <rect
       id="not-allowed"
       x="320"
       y="21"
       width="32"
       height="32"
       style="opacity:0.5;fill:#ff0000">
      <desc
         id="desc20470">format: png
dpi: 90
layout-disposition: bg-el-norepeat
layout-position-anchor: tl</desc>
    </rect>
    <rect
       height="32"
       width="32"
       y="21"
       x="370"
       id="all-scroll"
       style="opacity:0.5;fill:#ff0000">
      <desc
         id="desc21509">format: png
dpi: 90
layout-disposition: bg-el-norepeat
layout-position-anchor: tl</desc>
    </rect>
    <rect
       id="pointer"
       x="24"
       y="70"
       width="32"
       height="32"
       style="opacity:0.5;fill:#ff0000">
      <desc
         id="desc22606">format: png
dpi: 90
layout-disposition: bg-el-norepeat
layout-position-anchor: tl</desc>
    </rect>
    <rect
       height="32"
       width="32"
       y="73"
       x="76"
       id="openhand"
       style="opacity:0.5;fill:#ff0000">
      <desc
         id="desc23667">format: png
dpi: 90
layout-disposition: bg-el-norepeat
layout-position-anchor: tl</desc>
    </rect>
    <rect
       id="dnd-move"
       x="126"
       y="73"
       width="32"
       height="32"
       style="opacity:0.5;fill:#ff0000">
      <desc
         id="desc24732">format: png
dpi: 90
layout-disposition: bg-el-norepeat
layout-position-anchor: tl</desc>
    </rect>
    <rect
       height="32"
       width="32"
       y="73"
       x="176"
       id="dnd-no-drop"
       style="opacity:0.5;fill:#ff0000">
      <desc
         id="desc25801">format: png
dpi: 90
layout-disposition: bg-el-norepeat
layout-position-anchor: tl</desc>
    </rect>
    <rect
       id="alias"
       x="220"
       y="70"
       width="32"
       height="32"
       style="opacity:0.5;fill:#ff0000">
      <desc
         id="desc26874">format: png
dpi: 90
layout-disposition: bg-el-norepeat
layout-position-anchor: tl</desc>
    </rect>
    <rect
       height="32"
       width="32"
       y="70"
       x="270"
       id="progress"
       style="opacity:0.5;fill:#ff0000">
      <desc
         id="desc27951">format: png
dpi: 90
layout-disposition: bg-el-norepeat
layout-position-anchor: tl</desc>
    </rect>
    <rect
       id="wait"
       x="320"
       y="70"
       width="32"
       height="32"
       style="opacity:0.5;fill:#ff0000">
      <desc
         id="desc29032">format: png
dpi: 90
layout-disposition: bg-el-norepeat
layout-position-anchor: tl</desc>
    </rect>
    <rect
       height="32"
       width="32"
       y="70"
       x="370"
       id="context-menu"
       style="opacity:0.5;fill:#ff0000">
      <desc
         id="desc30117">format: png
dpi: 90
layout-disposition: bg-el-norepeat
layout-position-anchor: tl</desc>
    </rect>
    <rect
       style="opacity:0.5;fill:#ff0000"
       id="wayland-cursor"
       x="324"
       y="125"
       width="32"
       height="32">
      <desc
         id="desc31206">format: png
dpi: 90
layout-disposition: bg-el-norepeat
layout-position-anchor: tl</desc>
    </rect>
    <rect
       style="opacity:0.5;fill:#ff0000"
       height="32"
       width="32"
       y="125"
       x="274"
       id="x-cursor">
      <desc
         id="desc32299">format: png
dpi: 90
layout-disposition: bg-el-norepeat
layout-position-anchor: tl</desc>
    </rect>
    <rect
       style="opacity:0.5;fill:#ff0000"
       id="zoom-out"
       x="225"
       y="125"
       width="32"
       height="32">
      <desc
         id="desc33396">format: png
dpi: 90
layout-disposition: bg-el-norepeat
layout-position-anchor: tl</desc>
    </rect>
    <rect
       style="opacity:0.5;fill:#ff0000"
       height="32"
       width="32"
       y="125"
       x="175"
       id="zoom-in">
      <desc
         id="desc34497">format: png
dpi: 90
layout-disposition: bg-el-norepeat
layout-position-anchor: tl</desc>
    </rect>
    <rect
       style="opacity:0.5;fill:#ff0000"
       id="color-picker"
       x="122"
       y="127"
       width="32"
       height="32">
      <desc
         id="desc35602">format: png
dpi: 90
layout-disposition: bg-el-norepeat
layout-position-anchor: tl</desc>
    </rect>
    <rect
       style="opacity:0.5;fill:#ff0000"
       height="32"
       width="32"
       y="127"
       x="72"
       id="pencil">
      <desc
         id="desc36711">format: png
dpi: 90
layout-disposition: bg-el-norepeat
layout-position-anchor: tl</desc>
    </rect>
    <rect
       style="opacity:0.5;fill:#ff0000"
       id="draft"
       x="22"
       y="127"
       width="32"
       height="32">
      <desc
         id="desc37824">format: png
dpi: 90
layout-disposition: bg-el-norepeat
layout-position-anchor: tl</desc>
    </rect>
    <rect
       height="32"
       width="32"
       y="175"
       x="325"
       id="pirate"
       style="opacity:0.5;fill:#ff0000">
      <desc
         id="desc38941">format: png
dpi: 90
layout-disposition: bg-el-norepeat
layout-position-anchor: tl</desc>
    </rect>
    <rect
       id="right-arrow"
       x="279"
       y="175"
       width="32"
       height="32"
       style="opacity:0.5;fill:#ff0000">
      <desc
         id="desc40062">format: png
dpi: 90
layout-disposition: bg-el-norepeat
layout-position-anchor: tl</desc>
    </rect>
    <rect
       height="32"
       width="32"
       y="175"
       x="220"
       id="left-arrow"
       style="opacity:0.5;fill:#ff0000">
      <desc
         id="desc41187">format: png
dpi: 90
layout-disposition: bg-el-norepeat
layout-position-anchor: tl</desc>
    </rect>
    <rect
       id="down-arrow"
       x="174"
       y="170"
       width="32"
       height="32"
       style="opacity:0.5;fill:#ff0000">
      <desc
         id="desc42316">format: png
dpi: 90
layout-disposition: bg-el-norepeat
layout-position-anchor: tl</desc>
    </rect>
    <rect
       height="32"
       width="32"
       y="170"
       x="125"
       id="up-arrow"
       style="opacity:0.5;fill:#ff0000">
      <desc
         id="desc43449">format: png
dpi: 90
layout-disposition: bg-el-norepeat
layout-position-anchor: tl</desc>
    </rect>
    <rect
       id="vertical-text"
       x="74"
       y="175"
       width="32"
       height="32"
       style="opacity:0.5;fill:#ff0000">
      <desc
         id="desc44586">format: png
dpi: 90
layout-disposition: bg-el-norepeat
layout-position-anchor: tl</desc>
    </rect>
    <rect
       height="32"
       width="32"
       y="175"
       x="24"
       id="text"
       style="opacity:0.5;fill:#ff0000">
      <desc
         id="desc45727">format: png
dpi: 90
layout-disposition: bg-el-norepeat
layout-position-anchor: tl</desc>
    </rect>
    <rect
       style="opacity:0.5;fill:#ff0000"
       id="crosshair"
       x="325"
       y="225"
       width="32"
       height="32">
      <desc
         id="desc46872">format: png
dpi: 90
layout-disposition: bg-el-norepeat
layout-position-anchor: tl</desc>
    </rect>
    <rect
       style="opacity:0.5;fill:#ff0000"
       height="32"
       width="32"
       y="225"
       x="275"
       id="cell">
      <desc
         id="desc48021">format: png
dpi: 90
layout-disposition: bg-el-norepeat
layout-position-anchor: tl</desc>
    </rect>
    <rect
       style="opacity:0.5;fill:#ff0000"
       id="fleur"
       x="225"
       y="225"
       width="32"
       height="32">
      <desc
         id="desc49174">format: png
dpi: 90
layout-disposition: bg-el-norepeat
layout-position-anchor: tl</desc>
    </rect>
    <rect
       style="opacity:0.5;fill:#ff0000"
       height="32"
       width="32"
       y="225"
       x="174"
       id="size_fdiag">
      <desc
         id="desc50331">format: png
dpi: 90
layout-disposition: bg-el-norepeat
layout-position-anchor: tl</desc>
    </rect>
    <rect
       style="opacity:0.5;fill:#ff0000"
       id="size_bdiag"
       x="124"
       y="225"
       width="32"
       height="32">
      <desc
         id="desc51492">format: png
dpi: 90
layout-disposition: bg-el-norepeat
layout-position-anchor: tl</desc>
    </rect>
    <rect
       style="opacity:0.5;fill:#ff0000"
       height="32"
       width="32"
       y="225"
       x="74"
       id="size_hor">
      <desc
         id="desc52657">format: png
dpi: 90
layout-disposition: bg-el-norepeat
layout-position-anchor: tl</desc>
    </rect>
    <rect
       style="opacity:0.5;fill:#ff0000"
       id="size_ver"
       x="24"
       y="225"
       width="32"
       height="32">
      <desc
         id="desc53826">format: png
dpi: 90
layout-disposition: bg-el-norepeat
layout-position-anchor: tl</desc>
    </rect>
    <rect
       style="opacity:0.5;fill:#ff0000"
       height="32"
       width="32"
       y="275"
       x="279"
       id="right_side">
      <desc
         id="desc54999">format: png
dpi: 90
layout-disposition: bg-el-norepeat
layout-position-anchor: tl</desc>
    </rect>
    <rect
       style="opacity:0.5;fill:#ff0000"
       id="left_side"
       x="220"
       y="275"
       width="32"
       height="32">
      <desc
         id="desc56176">format: png
dpi: 90
layout-disposition: bg-el-norepeat
layout-position-anchor: tl</desc>
    </rect>
    <rect
       style="opacity:0.5;fill:#ff0000"
       height="32"
       width="32"
       y="279"
       x="174"
       id="bottom_side">
      <desc
         id="desc57357">format: png
dpi: 90
layout-disposition: bg-el-norepeat
layout-position-anchor: tl</desc>
    </rect>
    <rect
       style="opacity:0.5;fill:#ff0000"
       id="top_side"
       x="124"
       y="270"
       width="32"
       height="32">
      <desc
         id="desc58542">format: png
dpi: 90
layout-disposition: bg-el-norepeat
layout-position-anchor: tl</desc>
    </rect>
    <rect
       style="opacity:0.5;fill:#ff0000"
       height="32"
       width="32"
       y="275"
       x="24"
       id="row-resize">
      <desc
         id="desc59731">format: png
dpi: 90
layout-disposition: bg-el-norepeat
layout-position-anchor: tl</desc>
    </rect>
    <rect
       style="opacity:0.5;fill:#ff0000"
       id="col-resize"
       x="74"
       y="275"
       width="32"
       height="32">
      <desc
         id="desc60924">format: png
dpi: 90
layout-disposition: bg-el-norepeat
layout-position-anchor: tl</desc>
    </rect>
    <rect
       height="32"
       width="32"
       y="355"
       x="34"
       id="wait-01"
       style="opacity:0.5;fill:#ff0000">
      <desc
         id="desc6830">format: png
dpi: 90
layout-disposition: bg-el-norepeat
layout-position-anchor: tl</desc>
    </rect>
    <rect
       id="wait-02"
       x="74"
       y="355"
       width="32"
       height="32"
       style="opacity:0.5;fill:#ff0000">
      <desc
         id="desc8951">format: png
dpi: 90
layout-disposition: bg-el-norepeat
layout-position-anchor: tl</desc>
    </rect>
    <rect
       height="32"
       width="32"
       y="355"
       x="114"
       id="wait-03"
       style="opacity:0.5;fill:#ff0000">
      <desc
         id="desc11076">format: png
dpi: 90
layout-disposition: bg-el-norepeat
layout-position-anchor: tl</desc>
    </rect>
    <rect
       id="wait-04"
       x="154"
       y="355"
       width="32"
       height="32"
       style="opacity:0.5;fill:#ff0000">
      <desc
         id="desc13205">format: png
dpi: 90
layout-disposition: bg-el-norepeat
layout-position-anchor: tl</desc>
    </rect>
    <rect
       height="32"
       width="32"
       y="355"
       x="194"
       id="wait-05"
       style="opacity:0.5;fill:#ff0000">
      <desc
         id="desc15338">format: png
dpi: 90
layout-disposition: bg-el-norepeat
layout-position-anchor: tl</desc>
    </rect>
    <rect
       id="wait-06"
       x="234"
       y="355"
       width="32"
       height="32"
       style="opacity:0.5;fill:#ff0000">
      <desc
         id="desc17475">format: png
dpi: 90
layout-disposition: bg-el-norepeat
layout-position-anchor: tl</desc>
    </rect>
    <rect
       height="32"
       width="32"
       y="355"
       x="274"
       id="wait-07"
       style="opacity:0.5;fill:#ff0000">
      <desc
         id="desc19616">format: png
dpi: 90
layout-disposition: bg-el-norepeat
layout-position-anchor: tl</desc>
    </rect>
    <rect
       id="wait-08"
       x="314"
       y="355"
       width="32"
       height="32"
       style="opacity:0.5;fill:#ff0000">
      <desc
         id="desc21761">format: png
dpi: 90
layout-disposition: bg-el-norepeat
layout-position-anchor: tl</desc>
    </rect>
    <rect
       height="32"
       width="32"
       y="355"
       x="354"
       id="wait-09"
       style="opacity:0.5;fill:#ff0000">
      <desc
         id="desc23910">format: png
dpi: 90
layout-disposition: bg-el-norepeat
layout-position-anchor: tl</desc>
    </rect>
    <rect
       id="wait-10"
       x="394"
       y="355"
       width="32"
       height="32"
       style="opacity:0.5;fill:#ff0000">
      <desc
         id="desc26063">format: png
dpi: 90
layout-disposition: bg-el-norepeat
layout-position-anchor: tl</desc>
    </rect>
    <rect
       style="opacity:0.5;fill:#ff0000"
       id="wait-11"
       x="434"
       y="355"
       width="32"
       height="32">
      <desc
         id="desc30379">format: png
dpi: 90
layout-disposition: bg-el-norepeat
layout-position-anchor: tl</desc>
    </rect>
    <rect
       style="opacity:0.5;fill:#ff0000"
       height="32"
       width="32"
       y="355"
       x="474"
       id="wait-12">
      <desc
         id="desc32540">format: png
dpi: 90
layout-disposition: bg-el-norepeat
layout-position-anchor: tl</desc>
    </rect>
    <rect
       style="opacity:0.5;fill:#ff0000"
       id="wait-13"
       x="514"
       y="355"
       width="32"
       height="32">
      <desc
         id="desc34705">format: png
dpi: 90
layout-disposition: bg-el-norepeat
layout-position-anchor: tl</desc>
    </rect>
    <rect
       style="opacity:0.5;fill:#ff0000"
       height="32"
       width="32"
       y="355"
       x="554"
       id="wait-14">
      <desc
         id="desc36874">format: png
dpi: 90
layout-disposition: bg-el-norepeat
layout-position-anchor: tl</desc>
    </rect>
    <rect
       style="opacity:0.5;fill:#ff0000"
       id="wait-15"
       x="594"
       y="355"
       width="32"
       height="32">
      <desc
         id="desc39047">format: png
dpi: 90
layout-disposition: bg-el-norepeat
layout-position-anchor: tl</desc>
    </rect>
    <rect
       style="opacity:0.5;fill:#ff0000"
       height="32"
       width="32"
       y="355"
       x="634"
       id="wait-16">
      <desc
         id="desc41224">format: png
dpi: 90
layout-disposition: bg-el-norepeat
layout-position-anchor: tl</desc>
    </rect>
    <rect
       style="opacity:0.5;fill:#ff0000"
       id="wait-17"
       x="674"
       y="355"
       width="32"
       height="32">
      <desc
         id="desc43405">format: png
dpi: 90
layout-disposition: bg-el-norepeat
layout-position-anchor: tl</desc>
    </rect>
    <rect
       style="opacity:0.5;fill:#ff0000"
       height="32"
       width="32"
       y="355"
       x="714"
       id="wait-18">
      <desc
         id="desc45590">format: png
dpi: 90
layout-disposition: bg-el-norepeat
layout-position-anchor: tl</desc>
    </rect>
    <rect
       style="opacity:0.5;fill:#ff0000"
       id="wait-19"
       x="754"
       y="355"
       width="32"
       height="32">
      <desc
         id="desc47779">format: png
dpi: 90
layout-disposition: bg-el-norepeat
layout-position-anchor: tl</desc>
    </rect>
    <rect
       style="opacity:0.5;fill:#ff0000"
       height="32"
       width="32"
       y="355"
       x="794"
       id="wait-20">
      <desc
         id="desc49972">format: png
dpi: 90
layout-disposition: bg-el-norepeat
layout-position-anchor: tl</desc>
    </rect>
    <rect
       style="opacity:0.5;fill:#ff0000"
       id="wait-21"
       x="834"
       y="355"
       width="32"
       height="32">
      <desc
         id="desc52169">format: png
dpi: 90
layout-disposition: bg-el-norepeat
layout-position-anchor: tl</desc>
    </rect>
    <rect
       style="opacity:0.5;fill:#ff0000"
       height="32"
       width="32"
       y="355"
       x="874"
       id="wait-22">
      <desc
         id="desc54370">format: png
dpi: 90
layout-disposition: bg-el-norepeat
layout-position-anchor: tl</desc>
    </rect>
    <rect
       style="opacity:0.5;fill:#ff0000"
       id="wait-23"
       x="914"
       y="355"
       width="32"
       height="32">
      <desc
         id="desc56575">format: png
dpi: 90
layout-disposition: bg-el-norepeat
layout-position-anchor: tl</desc>
    </rect>
    <rect
       style="opacity:0.5;fill:#ff0000"
       height="32"
       width="32"
       y="391"
       x="70"
       id="progress-02">
      <desc
         id="desc63208">format: png
dpi: 90
layout-disposition: bg-el-norepeat
layout-position-anchor: tl</desc>
    </rect>
    <rect
       style="opacity:0.5;fill:#ff0000"
       id="progress-03"
       x="110"
       y="391"
       width="32"
       height="32">
      <desc
         id="desc65425">format: png
dpi: 90
layout-disposition: bg-el-norepeat
layout-position-anchor: tl</desc>
    </rect>
    <rect
       style="opacity:0.5;fill:#ff0000"
       height="32"
       width="32"
       y="391"
       x="150"
       id="progress-04">
      <desc
         id="desc67646">format: png
dpi: 90
layout-disposition: bg-el-norepeat
layout-position-anchor: tl</desc>
    </rect>
    <rect
       style="opacity:0.5;fill:#ff0000"
       id="progress-05"
       x="190"
       y="391"
       width="32"
       height="32">
      <desc
         id="desc69871">format: png
dpi: 90
layout-disposition: bg-el-norepeat
layout-position-anchor: tl</desc>
    </rect>
    <rect
       style="opacity:0.5;fill:#ff0000"
       height="32"
       width="32"
       y="391"
       x="230"
       id="progress-06">
      <desc
         id="desc72100">format: png
dpi: 90
layout-disposition: bg-el-norepeat
layout-position-anchor: tl</desc>
    </rect>
    <rect
       style="opacity:0.5;fill:#ff0000"
       id="progress-07"
       x="270"
       y="391"
       width="32"
       height="32">
      <desc
         id="desc74333">format: png
dpi: 90
layout-disposition: bg-el-norepeat
layout-position-anchor: tl</desc>
    </rect>
    <rect
       style="opacity:0.5;fill:#ff0000"
       height="32"
       width="32"
       y="391"
       x="310"
       id="progress-08">
      <desc
         id="desc76570">format: png
dpi: 90
layout-disposition: bg-el-norepeat
layout-position-anchor: tl</desc>
    </rect>
    <rect
       style="opacity:0.5;fill:#ff0000"
       id="progress-09"
       x="350"
       y="391"
       width="32"
       height="32">
      <desc
         id="desc78811">format: png
dpi: 90
layout-disposition: bg-el-norepeat
layout-position-anchor: tl</desc>
    </rect>
    <rect
       style="opacity:0.5;fill:#ff0000"
       height="32"
       width="32"
       y="391"
       x="390"
       id="progress-10">
      <desc
         id="desc81056">format: png
dpi: 90
layout-disposition: bg-el-norepeat
layout-position-anchor: tl</desc>
    </rect>
    <rect
       style="opacity:0.5;fill:#ff0000"
       id="progress-11"
       x="430"
       y="391"
       width="32"
       height="32">
      <desc
         id="desc83305">format: png
dpi: 90
layout-disposition: bg-el-norepeat
layout-position-anchor: tl</desc>
    </rect>
    <rect
       style="opacity:0.5;fill:#ff0000"
       height="32"
       width="32"
       y="391"
       x="470"
       id="progress-12">
      <desc
         id="desc85558">format: png
dpi: 90
layout-disposition: bg-el-norepeat
layout-position-anchor: tl</desc>
    </rect>
    <rect
       style="opacity:0.5;fill:#ff0000"
       id="progress-13"
       x="510"
       y="391"
       width="32"
       height="32">
      <desc
         id="desc87815">format: png
dpi: 90
layout-disposition: bg-el-norepeat
layout-position-anchor: tl</desc>
    </rect>
    <rect
       style="opacity:0.5;fill:#ff0000"
       height="32"
       width="32"
       y="391"
       x="550"
       id="progress-14">
      <desc
         id="desc90076">format: png
dpi: 90
layout-disposition: bg-el-norepeat
layout-position-anchor: tl</desc>
    </rect>
    <rect
       style="opacity:0.5;fill:#ff0000"
       id="progress-15"
       x="590"
       y="391"
       width="32"
       height="32">
      <desc
         id="desc92341">format: png
dpi: 90
layout-disposition: bg-el-norepeat
layout-position-anchor: tl</desc>
    </rect>
    <rect
       style="opacity:0.5;fill:#ff0000"
       height="32"
       width="32"
       y="391"
       x="630"
       id="progress-16">
      <desc
         id="desc94610">format: png
dpi: 90
layout-disposition: bg-el-norepeat
layout-position-anchor: tl</desc>
    </rect>
    <rect
       style="opacity:0.5;fill:#ff0000"
       id="progress-17"
       x="670"
       y="391"
       width="32"
       height="32">
      <desc
         id="desc96883">format: png
dpi: 90
layout-disposition: bg-el-norepeat
layout-position-anchor: tl</desc>
    </rect>
    <rect
       style="opacity:0.5;fill:#ff0000"
       height="32"
       width="32"
       y="391"
       x="710"
       id="progress-18">
      <desc
         id="desc99160">format: png
dpi: 90
layout-disposition: bg-el-norepeat
layout-position-anchor: tl</desc>
    </rect>
    <rect
       style="opacity:0.5;fill:#ff0000"
       id="progress-19"
       x="750"
       y="391"
       width="32"
       height="32">
      <desc
         id="desc101441">format: png
dpi: 90
layout-disposition: bg-el-norepeat
layout-position-anchor: tl</desc>
    </rect>
    <rect
       style="opacity:0.5;fill:#ff0000"
       height="32"
       width="32"
       y="391"
       x="790"
       id="progress-20">
      <desc
         id="desc103726">format: png
dpi: 90
layout-disposition: bg-el-norepeat
layout-position-anchor: tl</desc>
    </rect>
    <rect
       style="opacity:0.5;fill:#ff0000"
       id="progress-21"
       x="830"
       y="391"
       width="32"
       height="32">
      <desc
         id="desc106015">format: png
dpi: 90
layout-disposition: bg-el-norepeat
layout-position-anchor: tl</desc>
    </rect>
    <rect
       style="opacity:0.5;fill:#ff0000"
       height="32"
       width="32"
       y="391"
       x="870"
       id="progress-22">
      <desc
         id="desc108308">format: png
dpi: 90
layout-disposition: bg-el-norepeat
layout-position-anchor: tl</desc>
    </rect>
    <rect
       style="opacity:0.5;fill:#ff0000"
       id="progress-23"
       x="910"
       y="391"
       width="32"
       height="32">
      <desc
         id="desc110605">format: png
dpi: 90
layout-disposition: bg-el-norepeat
layout-position-anchor: tl</desc>
    </rect>
    <rect
       style="display:inline;opacity:0.5;fill:#ff0000"
       height="32"
       width="32"
       y="275"
       x="329"
       id="top_left_corner">
      <desc
         id="desc54999-7">format: png
dpi: 90
layout-disposition: bg-el-norepeat
layout-position-anchor: tl</desc>
    </rect>
    <rect
       style="display:inline;opacity:0.5;fill:#ff0000"
       height="32"
       width="32"
       y="275"
       x="379"
       id="top_right_corner">
      <desc
         id="desc54999-7-5">format: png
dpi: 90
layout-disposition: bg-el-norepeat
layout-position-anchor: tl</desc>
    </rect>
    <rect
       style="display:inline;opacity:0.5;fill:#ff0000"
       height="32"
       width="32"
       y="275"
       x="429"
       id="bottom_left_corner">
      <desc
         id="desc54999-7-5-8">format: png
dpi: 90
layout-disposition: bg-el-norepeat
layout-position-anchor: tl</desc>
    </rect>
    <rect
       style="display:inline;opacity:0.5;fill:#ff0000"
       height="32"
       width="32"
       y="275"
       x="479"
       id="bottom_right_corner">
      <desc
         id="desc54999-7-5-8-2">format: png
dpi: 90
layout-disposition: bg-el-norepeat
layout-position-anchor: tl</desc>
    </rect>
  </g>
</svg>
